EESchema Schematic File Version 4
EELAYER 30 0
EELAYER END
$Descr A4 11693 8268
encoding utf-8
Sheet 1 1
Title ""
Date ""
Rev ""
Comp ""
Comment1 ""
Comment2 ""
Comment3 ""
Comment4 ""
$EndDescr
Wire Wire Line
	4450 4900 3700 4900
Wire Wire Line
	3300 6250 3500 6250
Wire Wire Line
	3300 6300 3300 6250
Wire Wire Line
	3300 5850 3500 5850
Wire Wire Line
	3300 5800 3300 5850
Wire Wire Line
	3200 5950 3500 5950
Wire Wire Line
	4100 3900 3700 3900
Wire Wire Line
	3500 6050 3150 6050
Wire Wire Line
	3100 6150 3500 6150
Wire Wire Line
	3750 5300 3700 5300
Wire Wire Line
	3700 4700 4600 4700
Wire Wire Line
	3700 4600 4650 4600
Wire Wire Line
	3700 4500 4700 4500
Wire Wire Line
	3700 4400 4750 4400
Wire Wire Line
	4000 6150 4500 6150
Wire Wire Line
	4450 6050 4000 6050
Wire Wire Line
	4000 5950 4400 5950
Wire Wire Line
	4200 6250 4000 6250
Wire Wire Line
	4200 6300 4200 6250
$Comp
L power:GND #PWR?
U 1 1 62137F36
P 4200 6300
F 0 "#PWR?" H 4200 6050 50  0001 C CNN
F 1 "GND" H 4205 6127 50  0000 C CNN
F 2 "" H 4200 6300 50  0001 C CNN
F 3 "" H 4200 6300 50  0001 C CNN
	1    4200 6300
	1    0    0    -1  
$EndComp
$Comp
L power:GND #PWR?
U 1 1 621377E3
P 3300 6300
F 0 "#PWR?" H 3300 6050 50  0001 C CNN
F 1 "GND" H 3305 6127 50  0000 C CNN
F 2 "" H 3300 6300 50  0001 C CNN
F 3 "" H 3300 6300 50  0001 C CNN
	1    3300 6300
	1    0    0    -1  
$EndComp
$Comp
L power:+3.3V #PWR?
U 1 1 6212D3FE
P 3300 5800
F 0 "#PWR?" H 3300 5650 50  0001 C CNN
F 1 "+3.3V" H 3315 5973 50  0000 C CNN
F 2 "" H 3300 5800 50  0001 C CNN
F 3 "" H 3300 5800 50  0001 C CNN
	1    3300 5800
	1    0    0    -1  
$EndComp
Wire Wire Line
	4200 5850 4000 5850
Wire Wire Line
	4200 5800 4200 5850
$Comp
L power:+3.3V #PWR?
U 1 1 62122E85
P 4200 5800
F 0 "#PWR?" H 4200 5650 50  0001 C CNN
F 1 "+3.3V" H 4215 5973 50  0000 C CNN
F 2 "" H 4200 5800 50  0001 C CNN
F 3 "" H 4200 5800 50  0001 C CNN
	1    4200 5800
	1    0    0    -1  
$EndComp
Wire Wire Line
	5150 3700 4950 3700
$Comp
L Connector_Generic:Conn_02x05_Counter_Clockwise J5
U 1 1 620FA51F
P 3700 6050
F 0 "J5" H 3750 6467 50  0000 C CNN
F 1 "Conn_02x05_Female" H 3750 6376 50  0000 C CNN
F 2 "Connector_PinHeader_2.54mm:PinHeader_2x05_P2.54mm_Vertical" H 3700 6050 50  0001 C CNN
F 3 "~" H 3700 6050 50  0001 C CNN
	1    3700 6050
	1    0    0    -1  
$EndComp
Wire Wire Line
	1900 2600 1850 2600
Wire Wire Line
	1850 2700 1900 2700
Text GLabel 1850 2700 0    50   BiDi ~ 0
PC7
Text GLabel 1850 2600 0    50   BiDi ~ 0
PC6
Wire Wire Line
	1900 4600 1850 4600
Wire Wire Line
	1850 4700 1900 4700
Text GLabel 1850 4700 0    50   BiDi ~ 0
PD9
Text GLabel 1850 4600 0    50   BiDi ~ 0
PD8
Text GLabel 3750 5300 2    50   BiDi ~ 0
PB15
Wire Wire Line
	3750 2800 3700 2800
Text GLabel 3750 2800 2    50   BiDi ~ 0
PA8
Wire Wire Line
	5000 3800 4950 3800
Wire Wire Line
	4950 3900 5000 3900
Wire Wire Line
	5000 4000 4950 4000
Wire Wire Line
	4950 4100 5000 4100
Wire Wire Line
	4450 3900 4400 3900
Wire Wire Line
	4400 4000 4450 4000
Wire Wire Line
	4400 4100 4400 4150
Wire Wire Line
	4450 4100 4400 4100
Wire Wire Line
	5150 3650 5150 3700
$Comp
L power:+3.3V #PWR?
U 1 1 61FD944E
P 5150 3650
F 0 "#PWR?" H 5150 3500 50  0001 C CNN
F 1 "+3.3V" H 5165 3823 50  0000 C CNN
F 2 "" H 5150 3650 50  0001 C CNN
F 3 "" H 5150 3650 50  0001 C CNN
	1    5150 3650
	1    0    0    -1  
$EndComp
$Comp
L power:GND #PWR?
U 1 1 61FD8905
P 4400 4150
F 0 "#PWR?" H 4400 3900 50  0001 C CNN
F 1 "GND" H 4405 3977 50  0000 C CNN
F 2 "" H 4400 4150 50  0001 C CNN
F 3 "" H 4400 4150 50  0001 C CNN
	1    4400 4150
	1    0    0    -1  
$EndComp
Text GLabel 5000 3800 2    50   BiDi ~ 0
PB15
Text GLabel 5000 3900 2    50   BiDi ~ 0
PA8
Text GLabel 5000 4000 2    50   BiDi ~ 0
PC6
Text GLabel 5000 4100 2    50   BiDi ~ 0
PC7
Text GLabel 4400 4000 0    50   BiDi ~ 0
PD8
Text GLabel 4400 3900 0    50   BiDi ~ 0
PD9
Wire Wire Line
	4200 3800 4200 3100
Wire Wire Line
	4450 3800 4200 3800
Wire Wire Line
	4300 3700 4450 3700
Wire Wire Line
	4300 3200 4300 3700
$Comp
L Connector_Generic:Conn_02x05_Counter_Clockwise J7
U 1 1 61FADEDE
P 4650 3900
F 0 "J7" H 4700 4317 50  0000 C CNN
F 1 "Conn_02x05_Female" H 4700 4226 50  0000 C CNN
F 2 "Connector_PinHeader_2.54mm:PinHeader_2x05_P2.54mm_Vertical" H 4650 3900 50  0001 C CNN
F 3 "~" H 4650 3900 50  0001 C CNN
	1    4650 3900
	1    0    0    -1  
$EndComp
Wire Wire Line
	1200 3200 1550 3200
Wire Wire Line
	1200 2900 1550 2900
Wire Wire Line
	1200 3100 1900 3100
Wire Wire Line
	1200 3000 1900 3000
Wire Wire Line
	850  2300 850  2100
Connection ~ 850  2300
Wire Wire Line
	900  2300 850  2300
Wire Wire Line
	850  2100 850  1900
Connection ~ 850  2100
Wire Wire Line
	900  2100 850  2100
Wire Wire Line
	850  1900 900  1900
Wire Wire Line
	850  2400 850  2300
$Comp
L power:GND #PWR?
U 1 1 61F21DC3
P 850 2400
F 0 "#PWR?" H 850 2150 50  0001 C CNN
F 1 "GND" H 855 2227 50  0000 C CNN
F 2 "" H 850 2400 50  0001 C CNN
F 3 "" H 850 2400 50  0001 C CNN
	1    850  2400
	-1   0    0    -1  
$EndComp
Connection ~ 750  2000
Wire Wire Line
	750  2200 750  2000
Wire Wire Line
	900  2200 750  2200
Connection ~ 1550 1350
Wire Wire Line
	750  1350 1550 1350
Wire Wire Line
	750  2000 750  1350
Wire Wire Line
	900  2000 750  2000
Connection ~ 2250 1350
Wire Wire Line
	1550 1350 2250 1350
Wire Wire Line
	1550 1900 1550 1350
Wire Wire Line
	1400 1900 1550 1900
$Comp
L Connector_Generic:Conn_02x05_Counter_Clockwise J3
U 1 1 61F0CDA5
P 1200 2100
F 0 "J3" H 1250 2517 50  0000 C CNN
F 1 "Conn_02x05_Female" H 1250 2426 50  0000 C CNN
F 2 "Connector_PinHeader_2.54mm:PinHeader_2x05_P2.54mm_Vertical" H 1200 2100 50  0001 C CNN
F 3 "~" H 1200 2100 50  0001 C CNN
	1    1200 2100
	-1   0    0    -1  
$EndComp
Wire Wire Line
	1400 2300 1900 2300
Wire Wire Line
	1400 2000 1900 2000
Wire Wire Line
	1550 3250 1550 3200
Wire Wire Line
	1550 2800 1550 2900
$Comp
L power:+3.3V #PWR?
U 1 1 61EC93F3
P 1550 2800
F 0 "#PWR?" H 1550 2650 50  0001 C CNN
F 1 "+3.3V" H 1500 2950 50  0000 C CNN
F 2 "" H 1550 2800 50  0001 C CNN
F 3 "" H 1550 2800 50  0001 C CNN
	1    1550 2800
	1    0    0    -1  
$EndComp
$Comp
L power:GND #PWR?
U 1 1 61E815D5
P 1550 3250
F 0 "#PWR?" H 1550 3000 50  0001 C CNN
F 1 "GND" H 1555 3077 50  0000 C CNN
F 2 "" H 1550 3250 50  0001 C CNN
F 3 "" H 1550 3250 50  0001 C CNN
	1    1550 3250
	-1   0    0    -1  
$EndComp
$Comp
L Connector:Conn_01x04_Female J1
U 1 1 61E810AB
P 1000 3100
F 0 "J1" H 892 2675 50  0000 C CNN
F 1 "Conn_01x04_Female" H 892 2766 50  0000 C CNN
F 2 "Connector_PinHeader_2.54mm:PinHeader_1x04_P2.54mm_Vertical" H 1000 3100 50  0001 C CNN
F 3 "~" H 1000 3100 50  0001 C CNN
	1    1000 3100
	-1   0    0    1   
$EndComp
Text GLabel 3750 4100 2    50   BiDi ~ 0
PB3
Text GLabel 3750 4200 2    50   BiDi ~ 0
PB4
Wire Wire Line
	3700 4300 3750 4300
Wire Wire Line
	3750 4200 3700 4200
Wire Wire Line
	3700 4100 3750 4100
Wire Wire Line
	850  3800 900  3800
Wire Wire Line
	900  3900 850  3900
Text GLabel 850  4000 0    50   BiDi ~ 0
PB3
Text GLabel 850  3900 0    50   BiDi ~ 0
PB4
Text GLabel 850  3800 0    50   BiDi ~ 0
PB5
Text GLabel 3750 4300 2    50   BiDi ~ 0
PB5
$Comp
L Connector_Generic:Conn_02x05_Counter_Clockwise J4
U 1 1 61E1201A
P 1200 4000
F 0 "J4" H 1250 4417 50  0000 C CNN
F 1 "Conn_02x05_Female" H 1250 4326 50  0000 C CNN
F 2 "Connector_PinHeader_2.54mm:PinHeader_2x05_P2.54mm_Vertical" H 1200 4000 50  0001 C CNN
F 3 "~" H 1200 4000 50  0001 C CNN
	1    1200 4000
	-1   0    0    -1  
$EndComp
Wire Wire Line
	1850 4400 1850 4350
Wire Wire Line
	1900 4400 1850 4400
$Comp
L Connector:TestPoint TP8
U 1 1 61DB3FA4
P 4800 6050
F 0 "TP8" H 4858 6168 50  0000 L CNN
F 1 "TestPt" H 4858 6077 50  0000 L CNN
F 2 "TestPoint:TestPoint_Pad_1.0x1.0mm" H 5000 6050 50  0001 C CNN
F 3 "~" H 5000 6050 50  0001 C CNN
F 4 "PB9 LED3" H 4800 6050 50  0001 C CNN "Name"
	1    4800 6050
	0    1    -1   0   
$EndComp
$Comp
L Connector:TestPoint TP7
U 1 1 61DB3844
P 4800 5700
F 0 "TP7" H 4858 5818 50  0000 L CNN
F 1 "TestPt" H 4858 5727 50  0000 L CNN
F 2 "TestPoint:TestPoint_Pad_1.0x1.0mm" H 5000 5700 50  0001 C CNN
F 3 "~" H 5000 5700 50  0001 C CNN
F 4 "PB8 LED2" H 4800 5700 50  0001 C CNN "Name"
	1    4800 5700
	0    1    -1   0   
$EndComp
$Comp
L Connector:TestPoint TP6
U 1 1 61DB330F
P 4800 5050
F 0 "TP6" H 4858 5168 50  0000 L CNN
F 1 "TestPt" H 4858 5077 50  0000 L CNN
F 2 "TestPoint:TestPoint_Pad_1.0x1.0mm" H 5000 5050 50  0001 C CNN
F 3 "~" H 5000 5050 50  0001 C CNN
F 4 "PB7 LED1" H 4800 5050 50  0001 C CNN "Name"
	1    4800 5050
	0    1    -1   0   
$EndComp
$Comp
L Connector:TestPoint TP5
U 1 1 61DB1E87
P 4800 4700
F 0 "TP5" H 4858 4818 50  0000 L CNN
F 1 "TestPt" H 4858 4727 50  0000 L CNN
F 2 "TestPoint:TestPoint_Pad_1.0x1.0mm" H 5000 4700 50  0001 C CNN
F 3 "~" H 5000 4700 50  0001 C CNN
F 4 "PB6 LED0" H 4800 4700 50  0001 C CNN "Name"
	1    4800 4700
	0    1    -1   0   
$EndComp
Wire Wire Line
	5100 5200 5100 5000
Wire Wire Line
	5200 5000 5200 5100
Text GLabel 5100 5300 3    50   Output ~ 0
I2C2_SDA
Text GLabel 5200 5300 3    50   Output ~ 0
I2C2_SCL
$Comp
L power:+3.3V #PWR?
U 1 1 61D627AF
P 6200 7600
F 0 "#PWR?" H 6200 7450 50  0001 C CNN
F 1 "+3.3V" H 6215 7773 50  0000 C CNN
F 2 "" H 6200 7600 50  0001 C CNN
F 3 "" H 6200 7600 50  0001 C CNN
	1    6200 7600
	1    0    0    -1  
$EndComp
Connection ~ 1850 6200
Wire Wire Line
	1800 6500 1500 6500
Wire Wire Line
	1800 6600 1800 6500
Wire Wire Line
	1900 6200 1850 6200
Wire Wire Line
	1900 5850 1850 5850
Wire Wire Line
	2150 5850 2100 5850
Wire Wire Line
	2150 5900 2150 5850
Wire Wire Line
	2150 6200 2100 6200
Wire Wire Line
	2150 6250 2150 6200
$Comp
L Connector:TestPoint TP3
U 1 1 61C95746
P 1800 6600
F 0 "TP3" H 1858 6718 50  0000 L CNN
F 1 "TestPt" H 1858 6627 50  0000 L CNN
F 2 "TestPoint:TestPoint_Pad_1.0x1.0mm" H 2000 6600 50  0001 C CNN
F 3 "~" H 2000 6600 50  0001 C CNN
	1    1800 6600
	1    0    0    1   
$EndComp
Text Notes 1000 7200 0    50   ~ 0
Jeśli źródło odniesienia: 15k, 220k, 370k\nJeśli bez: 100k, 220k, 0R
Wire Wire Line
	1250 5850 1250 5950
Connection ~ 1500 6200
Wire Wire Line
	1250 6200 1250 6350
Connection ~ 1250 6200
Wire Wire Line
	1500 6200 1250 6200
Wire Wire Line
	1500 6250 1500 6200
Wire Wire Line
	1250 6150 1250 6200
Connection ~ 1500 6500
Wire Wire Line
	1500 6550 1500 6500
Wire Wire Line
	1450 6500 1500 6500
Wire Wire Line
	1500 6500 1500 6450
Wire Wire Line
	1250 6750 1250 6650
$Comp
L power:GND #PWR?
U 1 1 61C474B0
P 1250 6750
F 0 "#PWR?" H 1250 6500 50  0001 C CNN
F 1 "GND" H 1255 6577 50  0000 C CNN
F 2 "" H 1250 6750 50  0001 C CNN
F 3 "" H 1250 6750 50  0001 C CNN
	1    1250 6750
	1    0    0    -1  
$EndComp
$Comp
L power:GND #PWR?
U 1 1 61C47095
P 1500 6750
F 0 "#PWR?" H 1500 6500 50  0001 C CNN
F 1 "GND" H 1505 6577 50  0000 C CNN
F 2 "" H 1500 6750 50  0001 C CNN
F 3 "" H 1500 6750 50  0001 C CNN
	1    1500 6750
	1    0    0    -1  
$EndComp
$Comp
L Device:R_Small R1
U 1 1 61C4551C
P 1250 6050
F 0 "R1" H 1309 6096 50  0000 L CNN
F 1 "15k" H 1309 6005 50  0000 L CNN
F 2 "Resistor_SMD:R_0603_1608Metric_Pad0.98x0.95mm_HandSolder" H 1250 6050 50  0001 C CNN
F 3 "~" H 1250 6050 50  0001 C CNN
	1    1250 6050
	1    0    0    -1  
$EndComp
$Comp
L Device:R_Small R3
U 1 1 61C44909
P 1500 6650
F 0 "R3" H 1559 6696 50  0000 L CNN
F 1 "370k" H 1559 6605 50  0000 L CNN
F 2 "Resistor_SMD:R_0603_1608Metric_Pad0.98x0.95mm_HandSolder" H 1500 6650 50  0001 C CNN
F 3 "~" H 1500 6650 50  0001 C CNN
	1    1500 6650
	1    0    0    -1  
$EndComp
$Comp
L Device:R_Small R2
U 1 1 61C4437B
P 1500 6350
F 0 "R2" H 1559 6396 50  0000 L CNN
F 1 "220k" H 1559 6305 50  0000 L CNN
F 2 "Resistor_SMD:R_0603_1608Metric_Pad0.98x0.95mm_HandSolder" H 1500 6350 50  0001 C CNN
F 3 "~" H 1500 6350 50  0001 C CNN
	1    1500 6350
	1    0    0    -1  
$EndComp
$Comp
L Reference_Voltage:LM4041LP-ADJ U1
U 1 1 61C41BF2
P 1250 6500
F 0 "U1" V 1296 6413 50  0000 R CNN
F 1 "LM4041LP-ADJ" V 1205 6413 50  0000 R CNN
F 2 "Package_TO_SOT_SMD:SOT-23" H 1250 6300 50  0001 C CIN
F 3 "http://www.ti.com/lit/ds/symlink/lm4041-n.pdf" H 1350 6650 50  0001 C CIN
	1    1250 6500
	0    1    -1   0   
$EndComp
$Comp
L power:+5VA #PWR?
U 1 1 61C0D25C
P 1250 5850
F 0 "#PWR?" H 1250 5700 50  0001 C CNN
F 1 "+5VA" H 1265 6023 50  0000 C CNN
F 2 "" H 1250 5850 50  0001 C CNN
F 3 "" H 1250 5850 50  0001 C CNN
	1    1250 5850
	1    0    0    -1  
$EndComp
Wire Wire Line
	5850 2300 5850 2500
Wire Wire Line
	5750 2300 5750 2400
$Comp
L Connector:TestPoint TP10
U 1 1 61C046BF
P 5750 2300
F 0 "TP10" H 5808 2418 50  0000 L CNN
F 1 "TestPt" H 5808 2327 50  0000 L CNN
F 2 "TestPoint:TestPoint_Pad_1.0x1.0mm" H 5950 2300 50  0001 C CNN
F 3 "~" H 5950 2300 50  0001 C CNN
	1    5750 2300
	-1   0    0    -1  
$EndComp
$Comp
L Connector:TestPoint TP11
U 1 1 61C03C4F
P 5850 2300
F 0 "TP11" H 5908 2418 50  0000 L CNN
F 1 "TestPt" H 5908 2327 50  0000 L CNN
F 2 "TestPoint:TestPoint_Pad_1.0x1.0mm" H 6050 2300 50  0001 C CNN
F 3 "~" H 6050 2300 50  0001 C CNN
	1    5850 2300
	1    0    0    -1  
$EndComp
Wire Wire Line
	3700 3400 4050 3400
Wire Wire Line
	1850 6200 1500 6200
Wire Wire Line
	1900 5300 1850 5300
Wire Wire Line
	1050 5250 1050 5200
$Comp
L power:GND #PWR?
U 1 1 61C39B0D
P 1050 5250
F 0 "#PWR?" H 1050 5000 50  0001 C CNN
F 1 "GND" H 1055 5077 50  0000 C CNN
F 2 "" H 1050 5250 50  0001 C CNN
F 3 "" H 1050 5250 50  0001 C CNN
	1    1050 5250
	1    0    0    -1  
$EndComp
NoConn ~ 650  4900
$Comp
L Oscillator:ECS-2520MV-xxx-xx X1
U 1 1 61C1AF7E
P 1050 4900
F 0 "X1" H 850 5150 50  0000 R CNN
F 1 "520-2520MV-080-BN-TR" V 550 5350 50  0000 R CNN
F 2 "Oscillator:Oscillator_SMD_ECS_2520MV-xxx-xx-4Pin_2.5x2.0mm" H 1500 4550 50  0001 C CNN
F 3 "https://eu.mouser.com/datasheet/2/122/ECS_2520MV-1825395.pdf" H 875 5025 50  0001 C CNN
	1    1050 4900
	1    0    0    -1  
$EndComp
Text GLabel 5850 2550 3    50   Output ~ 0
DAC2
Text GLabel 5750 2550 3    50   Output ~ 0
DAC1
$Comp
L power:+3.3V #PWR?
U 1 1 61B92D5E
P 1050 4500
F 0 "#PWR?" H 1050 4350 50  0001 C CNN
F 1 "+3.3V" H 900 4600 50  0000 C CNN
F 2 "" H 1050 4500 50  0001 C CNN
F 3 "" H 1050 4500 50  0001 C CNN
	1    1050 4500
	1    0    0    -1  
$EndComp
Text GLabel 1900 5100 0    50   Input ~ 0
NRST
$Comp
L Connector:Conn_01x02_Male TP4
U 1 1 61C09826
P 4450 2900
F 0 "TP4" H 4500 3000 50  0000 L CNN
F 1 "Conn_01x02_Male" H 4000 2750 50  0000 L CNN
F 2 "Connector_PinHeader_2.54mm:PinHeader_1x02_P2.54mm_Vertical" H 4450 2900 50  0001 C CNN
F 3 "~" H 4450 2900 50  0001 C CNN
	1    4450 2900
	-1   0    0    -1  
$EndComp
$Comp
L Connector:Conn_01x02_Male TP9
U 1 1 61C08941
P 5200 4800
F 0 "TP9" H 5200 4850 50  0000 L CNN
F 1 "Conn_01x02_Male" H 4800 4950 50  0000 L CNN
F 2 "Connector_PinHeader_2.54mm:PinHeader_1x02_P2.54mm_Vertical" H 5200 4800 50  0001 C CNN
F 3 "~" H 5200 4800 50  0001 C CNN
	1    5200 4800
	0    1    1    0   
$EndComp
Text GLabel 4150 1450 3    50   UnSpc ~ 0
NRST
$Comp
L power:GND #PWR?
U 1 1 61BB1D19
P 3950 1100
F 0 "#PWR?" H 3950 850 50  0001 C CNN
F 1 "GND" H 3955 927 50  0000 C CNN
F 2 "" H 3950 1100 50  0001 C CNN
F 3 "" H 3950 1100 50  0001 C CNN
	1    3950 1100
	1    0    0    -1  
$EndComp
Wire Wire Line
	2900 1350 2800 1350
Connection ~ 2800 1350
Wire Wire Line
	2250 1400 2250 1350
Wire Wire Line
	2250 1650 2250 1600
$Comp
L power:GND #PWR?
U 1 1 61B7243D
P 2250 1650
F 0 "#PWR?" H 2250 1400 50  0001 C CNN
F 1 "GND" H 2255 1477 50  0000 C CNN
F 2 "" H 2250 1650 50  0001 C CNN
F 3 "" H 2250 1650 50  0001 C CNN
	1    2250 1650
	-1   0    0    -1  
$EndComp
$Comp
L Device:C_Small C4
U 1 1 61B7242B
P 2250 1500
F 0 "C4" H 2159 1454 50  0000 R CNN
F 1 "4.7uF" H 2159 1545 50  0000 R CNN
F 2 "Capacitor_SMD:C_0603_1608Metric_Pad1.08x0.95mm_HandSolder" H 2250 1500 50  0001 C CNN
F 3 "https://pl.mouser.com/datasheet/2/585/MLCC-1837944.pdf" H 2250 1500 50  0001 C CNN
F 4 "CL10A475KP8NNNC " H 2250 1500 50  0001 C CNN "Name"
	1    2250 1500
	1    0    0    1   
$EndComp
$Comp
L power:GND #PWR?
U 1 1 61B6642A
P 2150 6250
F 0 "#PWR?" H 2150 6000 50  0001 C CNN
F 1 "GND" H 2155 6077 50  0000 C CNN
F 2 "" H 2150 6250 50  0001 C CNN
F 3 "" H 2150 6250 50  0001 C CNN
	1    2150 6250
	1    0    0    -1  
$EndComp
$Comp
L power:GND #PWR?
U 1 1 61B6619B
P 2150 5900
F 0 "#PWR?" H 2150 5650 50  0001 C CNN
F 1 "GND" H 2155 5727 50  0000 C CNN
F 2 "" H 2150 5900 50  0001 C CNN
F 3 "" H 2150 5900 50  0001 C CNN
	1    2150 5900
	1    0    0    -1  
$EndComp
$Comp
L Device:C_Small C3
U 1 1 61B65C41
P 2000 6200
F 0 "C3" H 1909 6154 50  0000 R CNN
F 1 "100nF" H 1909 6245 50  0000 R CNN
F 2 "Capacitor_SMD:C_0603_1608Metric_Pad1.08x0.95mm_HandSolder" H 2000 6200 50  0001 C CNN
F 3 "https://pl.mouser.com/datasheet/2/445/885012206095-1727433.pdf" H 2000 6200 50  0001 C CNN
F 4 "885012206095 " H 2000 6200 50  0001 C CNN "Name"
	1    2000 6200
	0    -1   -1   0   
$EndComp
Wire Wire Line
	2800 5550 2800 5650
$Comp
L power:GND #PWR?
U 1 1 61B5511E
P 2800 5650
F 0 "#PWR?" H 2800 5400 50  0001 C CNN
F 1 "GND" H 2805 5477 50  0000 C CNN
F 2 "" H 2800 5650 50  0001 C CNN
F 3 "" H 2800 5650 50  0001 C CNN
	1    2800 5650
	1    0    0    -1  
$EndComp
Text GLabel 1450 800  2    50   Input ~ 0
SIG_IN2
Wire Wire Line
	900  1200 850  1200
Wire Wire Line
	1400 1100 1450 1100
Wire Wire Line
	1450 1000 1400 1000
Wire Wire Line
	1450 900  1400 900 
Wire Wire Line
	900  900  850  900 
Wire Wire Line
	900  1000 850  1000
Wire Wire Line
	4450 4900 4450 6050
Wire Wire Line
	3200 5950 3200 5550
Wire Wire Line
	3200 5550 4150 5550
Wire Wire Line
	4100 3900 4100 5500
Wire Wire Line
	3150 5500 3150 6050
Wire Wire Line
	3100 6150 3100 5450
Wire Wire Line
	3100 5450 4050 5450
$Comp
L Connector_Generic:Conn_02x05_Odd_Even J2
U 1 1 623DCBC2
P 1100 1000
F 0 "J2" H 1150 1417 50  0000 C CNN
F 1 "Conn_02x05_Horizontal" H 1150 1326 50  0000 C CNN
F 2 "Connector_PinSocket_2.54mm:PinSocket_2x05_P2.54mm_Horizontal" H 1100 1000 50  0001 C CNN
F 3 "~" H 1100 1000 50  0001 C CNN
	1    1100 1000
	1    0    0    -1  
$EndComp
Wire Wire Line
	1450 800  1400 800 
Text GLabel 850  800  0    50   Input ~ 0
SIG_IN1
Wire Wire Line
	850  800  900  800 
Text Notes 5600 6300 3    50   ~ 0
LOW = Enabled
$Comp
L Device:LED_Small D2
U 1 1 61CE15A2
P 3950 7500
F 0 "D2" V 3996 7430 50  0000 R CNN
F 1 "R/G" V 3905 7430 50  0000 R CNN
F 2 "LED_SMD:LED_0603_1608Metric_Pad1.05x0.95mm_HandSolder" V 3950 7500 50  0001 C CNN
F 3 "~" V 3950 7500 50  0001 C CNN
	1    3950 7500
	0    1    -1   0   
$EndComp
$Comp
L Device:LED_Small D4
U 1 1 61CE2399
P 4650 7500
F 0 "D4" V 4696 7430 50  0000 R CNN
F 1 "R/G" V 4605 7430 50  0000 R CNN
F 2 "LED_SMD:LED_0603_1608Metric_Pad1.05x0.95mm_HandSolder" V 4650 7500 50  0001 C CNN
F 3 "~" V 4650 7500 50  0001 C CNN
	1    4650 7500
	0    1    -1   0   
$EndComp
$Comp
L power:GND #PWR?
U 1 1 61CE4792
P 3600 7600
F 0 "#PWR?" H 3600 7350 50  0001 C CNN
F 1 "GND" H 3605 7427 50  0000 C CNN
F 2 "" H 3600 7600 50  0001 C CNN
F 3 "" H 3600 7600 50  0001 C CNN
	1    3600 7600
	1    0    0    -1  
$EndComp
$Comp
L power:GND #PWR?
U 1 1 61CE4F56
P 3950 7600
F 0 "#PWR?" H 3950 7350 50  0001 C CNN
F 1 "GND" H 3955 7427 50  0000 C CNN
F 2 "" H 3950 7600 50  0001 C CNN
F 3 "" H 3950 7600 50  0001 C CNN
	1    3950 7600
	1    0    0    -1  
$EndComp
$Comp
L power:GND #PWR?
U 1 1 61CE6B45
P 4300 7600
F 0 "#PWR?" H 4300 7350 50  0001 C CNN
F 1 "GND" H 4305 7427 50  0000 C CNN
F 2 "" H 4300 7600 50  0001 C CNN
F 3 "" H 4300 7600 50  0001 C CNN
	1    4300 7600
	1    0    0    -1  
$EndComp
$Comp
L Device:Q_DUAL_PNP_PNP_BRT_E1B1C2E2B2C1 Q2
U 2 1 61BEBBC5
P 5500 7250
F 0 "Q2" V 5600 7000 50  0000 L CNN
F 1 "PUMB16,115" V 5700 7000 50  0000 L CNN
F 2 "Package_TO_SOT_SMD:SOT-363_SC-70-6_Handsoldering" H 5500 7250 50  0001 C CNN
F 3 "https://pl.mouser.com/datasheet/2/916/PEMB16_PUMB16-1320265.pdf" H 5500 7250 50  0001 C CNN
	2    5500 7250
	0    -1   1    0   
$EndComp
$Comp
L Device:Q_DUAL_PNP_PNP_BRT_E1B1C2E2B2C1 Q2
U 1 1 61BE9F1B
P 5050 6900
F 0 "Q2" V 5150 6650 50  0000 L CNN
F 1 "PUMB16,115" V 5250 6650 50  0000 L CNN
F 2 "Package_TO_SOT_SMD:SOT-363_SC-70-6_Handsoldering" H 5050 6900 50  0001 C CNN
F 3 "https://pl.mouser.com/datasheet/2/916/PEMB16_PUMB16-1320265.pdf" H 5050 6900 50  0001 C CNN
	1    5050 6900
	0    -1   1    0   
$EndComp
$Comp
L Device:Q_DUAL_PNP_PNP_BRT_E1B1C2E2B2C1 Q1
U 2 1 61D4FCAC
P 5950 7600
F 0 "Q1" V 6050 7350 50  0000 L CNN
F 1 "PUMB16,115" V 6100 7550 50  0000 L CNN
F 2 "Package_TO_SOT_SMD:SOT-363_SC-70-6_Handsoldering" H 5950 7600 50  0001 C CNN
F 3 "https://pl.mouser.com/datasheet/2/916/PEMB16_PUMB16-1320265.pdf" H 5950 7600 50  0001 C CNN
	2    5950 7600
	0    -1   1    0   
$EndComp
$Comp
L Device:Q_DUAL_PNP_PNP_BRT_E1B1C2E2B2C1 Q1
U 1 1 61D50791
P 4600 6550
F 0 "Q1" V 4700 6300 50  0000 L CNN
F 1 "PUMB16,115" V 4800 6300 50  0000 L CNN
F 2 "Package_TO_SOT_SMD:SOT-363_SC-70-6_Handsoldering" H 4600 6550 50  0001 C CNN
F 3 "https://pl.mouser.com/datasheet/2/916/PEMB16_PUMB16-1320265.pdf" H 4600 6550 50  0001 C CNN
	1    4600 6550
	0    -1   1    0   
$EndComp
Wire Wire Line
	5050 6550 5050 6200
$Comp
L power:+3.3V #PWR?
U 1 1 624CF7BE
P 5750 7250
F 0 "#PWR?" H 5750 7100 50  0001 C CNN
F 1 "+3.3V" H 5765 7423 50  0000 C CNN
F 2 "" H 5750 7250 50  0001 C CNN
F 3 "" H 5750 7250 50  0001 C CNN
	1    5750 7250
	1    0    0    -1  
$EndComp
$Comp
L power:+3.3V #PWR?
U 1 1 624CFD09
P 5300 6900
F 0 "#PWR?" H 5300 6750 50  0001 C CNN
F 1 "+3.3V" H 5315 7073 50  0000 C CNN
F 2 "" H 5300 6900 50  0001 C CNN
F 3 "" H 5300 6900 50  0001 C CNN
	1    5300 6900
	1    0    0    -1  
$EndComp
$Comp
L power:+3.3V #PWR?
U 1 1 624D063F
P 4850 6550
F 0 "#PWR?" H 4850 6400 50  0001 C CNN
F 1 "+3.3V" H 4865 6723 50  0000 C CNN
F 2 "" H 4850 6550 50  0001 C CNN
F 3 "" H 4850 6550 50  0001 C CNN
	1    4850 6550
	1    0    0    -1  
$EndComp
Wire Wire Line
	4850 6550 4850 6600
Wire Wire Line
	4850 6600 4800 6600
Wire Wire Line
	5300 6900 5300 6950
Wire Wire Line
	5300 6950 5250 6950
Wire Wire Line
	5750 7250 5750 7300
Wire Wire Line
	5750 7300 5700 7300
Wire Wire Line
	6200 7600 6200 7650
Wire Wire Line
	6200 7650 6150 7650
$Comp
L power:GND #PWR?
U 1 1 626AB75E
P 4650 7600
F 0 "#PWR?" H 4650 7350 50  0001 C CNN
F 1 "GND" H 4655 7427 50  0000 C CNN
F 2 "" H 4650 7600 50  0001 C CNN
F 3 "" H 4650 7600 50  0001 C CNN
	1    4650 7600
	1    0    0    -1  
$EndComp
Wire Wire Line
	4650 7050 4750 7050
Wire Wire Line
	4750 7050 4750 7650
Wire Wire Line
	4750 7650 5750 7650
Wire Wire Line
	4300 7000 4800 7000
Wire Wire Line
	4800 7000 4800 7300
Wire Wire Line
	4800 7300 5300 7300
Wire Wire Line
	4850 6950 3950 6950
Wire Wire Line
	3600 6600 4400 6600
Wire Wire Line
	3700 5100 5200 5100
Wire Wire Line
	4600 6200 4600 6050
Wire Wire Line
	5050 6200 4650 6200
Wire Wire Line
	4650 6200 4650 5700
Wire Wire Line
	4700 4500 4700 5050
Wire Wire Line
	4700 6150 5500 6150
Wire Wire Line
	5500 6150 5500 6900
Wire Wire Line
	5950 6100 4750 6100
Wire Wire Line
	4750 6100 4750 4700
Wire Wire Line
	5950 6100 5950 7250
Wire Wire Line
	4800 6050 4600 6050
Connection ~ 4600 6050
Wire Wire Line
	4600 6050 4600 4700
Wire Wire Line
	4800 5700 4650 5700
Connection ~ 4650 5700
Wire Wire Line
	4650 5700 4650 4600
Wire Wire Line
	4800 5050 4700 5050
Connection ~ 4700 5050
Wire Wire Line
	4700 5050 4700 6150
Wire Wire Line
	4800 4700 4750 4700
Connection ~ 4750 4700
Wire Wire Line
	4750 4700 4750 4400
Wire Wire Line
	3700 5200 5100 5200
Wire Wire Line
	750  1100 750  1350
Wire Wire Line
	750  1100 900  1100
Connection ~ 750  1350
Wire Wire Line
	3700 3300 4000 3300
Wire Wire Line
	850  1200 850  1300
Wire Wire Line
	850  1300 1700 1300
Wire Wire Line
	2950 1300 2950 1850
Wire Wire Line
	4150 1850 4150 2900
Wire Wire Line
	4150 2900 4250 2900
Wire Wire Line
	1400 1200 1800 1200
Wire Wire Line
	4200 3000 4250 3000
Text GLabel 1700 1400 3    50   Input ~ 0
I2C1_SCL
Text GLabel 1800 1400 3    50   Input ~ 0
I2C1_SDA
Wire Wire Line
	1800 1400 1800 1200
Connection ~ 1800 1200
Wire Wire Line
	1800 1200 3000 1200
Wire Wire Line
	1700 1400 1700 1300
Connection ~ 1700 1300
Wire Wire Line
	1700 1300 2950 1300
$Comp
L power:GND #PWR?
U 1 1 62929486
P 1450 1100
F 0 "#PWR?" H 1450 850 50  0001 C CNN
F 1 "GND" V 1450 900 50  0000 C CNN
F 2 "" H 1450 1100 50  0001 C CNN
F 3 "" H 1450 1100 50  0001 C CNN
	1    1450 1100
	0    -1   1    0   
$EndComp
$Comp
L power:GND #PWR?
U 1 1 62929C42
P 850 1000
F 0 "#PWR?" H 850 750 50  0001 C CNN
F 1 "GND" V 850 800 50  0000 C CNN
F 2 "" H 850 1000 50  0001 C CNN
F 3 "" H 850 1000 50  0001 C CNN
	1    850  1000
	0    1    -1   0   
$EndComp
$Comp
L power:GND #PWR?
U 1 1 6292A134
P 850 900
F 0 "#PWR?" H 850 650 50  0001 C CNN
F 1 "GND" V 850 700 50  0000 C CNN
F 2 "" H 850 900 50  0001 C CNN
F 3 "" H 850 900 50  0001 C CNN
	1    850  900 
	0    1    -1   0   
$EndComp
$Comp
L power:+5VA #PWR?
U 1 1 6292C247
P 1450 900
F 0 "#PWR?" H 1450 750 50  0001 C CNN
F 1 "+5VA" V 1465 1028 50  0000 L CNN
F 2 "" H 1450 900 50  0001 C CNN
F 3 "" H 1450 900 50  0001 C CNN
	1    1450 900 
	0    1    1    0   
$EndComp
$Comp
L power:+9VA #PWR?
U 1 1 6292CC3A
P 1450 1000
F 0 "#PWR?" H 1450 875 50  0001 C CNN
F 1 "+9VA" V 1465 1128 50  0000 L CNN
F 2 "" H 1450 1000 50  0001 C CNN
F 3 "" H 1450 1000 50  0001 C CNN
	1    1450 1000
	0    1    1    0   
$EndComp
$Comp
L power:+3.3V #PWR?
U 1 1 6292EE58
P 750 1100
F 0 "#PWR?" H 750 950 50  0001 C CNN
F 1 "+3.3V" V 650 1250 50  0000 C CNN
F 2 "" H 750 1100 50  0001 C CNN
F 3 "" H 750 1100 50  0001 C CNN
	1    750  1100
	0    -1   -1   0   
$EndComp
Connection ~ 750  1100
Wire Wire Line
	2950 1850 4150 1850
Wire Wire Line
	4150 2900 3700 2900
Connection ~ 4150 2900
Connection ~ 4200 3000
Wire Wire Line
	4200 1800 4200 3000
Connection ~ 5100 5200
Connection ~ 5200 5100
Wire Wire Line
	5100 5200 5100 5300
Wire Wire Line
	5200 5300 5200 5100
Wire Wire Line
	5750 2550 5750 2400
Wire Wire Line
	5850 2500 5850 2550
$Comp
L power:+9VA #PWR?
U 1 1 62C30916
P 6250 750
F 0 "#PWR?" H 6250 625 50  0001 C CNN
F 1 "+9VA" H 6265 923 50  0000 C CNN
F 2 "" H 6250 750 50  0001 C CNN
F 3 "" H 6250 750 50  0001 C CNN
	1    6250 750 
	1    0    0    -1  
$EndComp
$Comp
L power:+5VA #PWR?
U 1 1 62C313C3
P 7050 800
F 0 "#PWR?" H 7050 650 50  0001 C CNN
F 1 "+5VA" H 7065 973 50  0000 C CNN
F 2 "" H 7050 800 50  0001 C CNN
F 3 "" H 7050 800 50  0001 C CNN
	1    7050 800 
	1    0    0    -1  
$EndComp
Text GLabel 6500 1400 0    50   Output ~ 0
SIG_IN2
Text GLabel 6500 1550 0    50   Output ~ 0
SIG_IN1
Text Notes 4750 2600 0    50   ~ 0
Napiecia sterujace z uC
Text Notes 5250 5300 0    50   ~ 0
i2c z uC do sterowania
Wire Notes Line
	6150 6500 6150 500 
Wire Notes Line
	6150 500  11200 500 
Wire Notes Line
	11200 500  11200 6500
Wire Notes Line
	6150 6500 11200 6500
Wire Wire Line
	6250 800  6250 750 
$Comp
L Device:C_Small C7
U 1 1 62CEA29B
P 6250 950
F 0 "C7" H 6159 904 50  0000 R CNN
F 1 "100nF" H 6159 995 50  0000 R CNN
F 2 "Capacitor_SMD:C_0603_1608Metric_Pad1.08x0.95mm_HandSolder" H 6250 950 50  0001 C CNN
F 3 "https://pl.mouser.com/datasheet/2/445/885012206095-1727433.pdf" H 6250 950 50  0001 C CNN
F 4 "885012206095 " H 6250 950 50  0001 C CNN "Name"
	1    6250 950 
	-1   0    0    1   
$EndComp
$Comp
L Device:CP1_Small C8
U 1 1 62D05599
P 6650 950
F 0 "C8" H 6741 996 50  0000 L CNN
F 1 "100uF" H 6741 905 50  0000 L CNN
F 2 "Capacitor_THT:CP_Radial_D5.0mm_P2.00mm" H 6650 950 50  0001 C CNN
F 3 "https://pl.mouser.com/datasheet/2/445/860010372006-1725314.pdf" H 6650 950 50  0001 C CNN
	1    6650 950 
	1    0    0    -1  
$EndComp
$Comp
L Device:R_Small R7
U 1 1 62D07FE6
P 6450 800
F 0 "R7" H 6509 846 50  0000 L CNN
F 1 "47" H 6509 755 50  0000 L CNN
F 2 "Resistor_SMD:R_0603_1608Metric_Pad0.98x0.95mm_HandSolder" H 6450 800 50  0001 C CNN
F 3 "~" H 6450 800 50  0001 C CNN
	1    6450 800 
	0    1    -1   0   
$EndComp
$Comp
L Device:C_Small C2
U 1 1 62D0F201
P 2000 5850
F 0 "C2" H 1909 5804 50  0000 R CNN
F 1 "1uF" H 1909 5895 50  0000 R CNN
F 2 "Capacitor_SMD:C_0603_1608Metric_Pad1.08x0.95mm_HandSolder" H 2000 5850 50  0001 C CNN
F 3 "https://pl.mouser.com/datasheet/2/585/MLCC-1837944.pdf" H 2000 5850 50  0001 C CNN
F 4 "CL10B105KO8NNNC" H 2000 5850 50  0001 C CNN "Name"
	1    2000 5850
	0    -1   -1   0   
$EndComp
Connection ~ 1850 5850
Wire Wire Line
	1850 5850 1850 6200
$Comp
L Connector:TestPoint TP2
U 1 1 61C2F5D2
P 1500 6150
F 0 "TP2" H 1558 6268 50  0000 L CNN
F 1 "TestPt" H 1558 6177 50  0000 L CNN
F 2 "TestPoint:TestPoint_Pad_1.0x1.0mm" H 1700 6150 50  0001 C CNN
F 3 "~" H 1700 6150 50  0001 C CNN
	1    1500 6150
	1    0    0    -1  
$EndComp
Wire Wire Line
	1500 6150 1500 6200
Wire Wire Line
	4050 1100 4050 1300
Wire Wire Line
	3500 1100 3500 1150
Wire Wire Line
	3500 1150 3650 1150
Wire Wire Line
	3650 1150 3650 1100
Wire Wire Line
	4050 1300 4150 1300
Wire Wire Line
	3000 1800 4200 1800
Wire Wire Line
	2800 1350 2800 1750
Wire Wire Line
	2900 1350 2900 1750
Wire Wire Line
	3700 3200 4300 3200
Wire Wire Line
	3700 3000 4200 3000
Wire Wire Line
	3700 3100 4200 3100
Wire Wire Line
	4150 1450 4150 1300
Wire Wire Line
	4650 7100 4650 7050
Wire Wire Line
	4300 7100 4300 7000
Wire Wire Line
	3600 7100 3600 6600
$Comp
L Device:R_Pack04_Split RN1
U 1 1 61C01D31
P 4300 7250
F 0 "RN1" H 4388 7296 50  0000 L CNN
F 1 "220" H 4388 7205 50  0000 L CNN
F 2 "Modum:R_Array_Convex_4x0603" V 4220 7250 50  0001 C CNN
F 3 "https://pl.mouser.com/datasheet/2/315/AOC0000C14-1108062.pdf" H 4300 7250 50  0001 C CNN
F 4 "EXB-38V221JV" H 4300 7250 50  0001 C CNN "Mouser ID"
	1    4300 7250
	-1   0    0    -1  
$EndComp
$Comp
L Device:R_Pack04_Split RN1
U 2 1 61C0254E
P 3950 7250
F 0 "RN1" H 4038 7296 50  0000 L CNN
F 1 "220" H 4038 7205 50  0000 L CNN
F 2 "Modum:R_Array_Convex_4x0603" V 3870 7250 50  0001 C CNN
F 3 "https://pl.mouser.com/datasheet/2/315/AOC0000C14-1108062.pdf" H 3950 7250 50  0001 C CNN
	2    3950 7250
	-1   0    0    -1  
$EndComp
$Comp
L Connector:Conn_01x05_Male J6
U 1 1 61C6D03F
P 3850 900
F 0 "J6" H 3900 1150 50  0000 L CNN
F 1 "Conn_01x05_Male" H 3550 1250 50  0000 L CNN
F 2 "Connector_PinHeader_2.54mm:PinHeader_1x05_P2.54mm_Vertical" H 3850 900 50  0001 C CNN
F 3 "~" H 3850 900 50  0001 C CNN
	1    3850 900 
	0    1    1    0   
$EndComp
$Comp
L Device:R_Pack04_Split RN1
U 3 1 61C02D95
P 3600 7250
F 0 "RN1" H 3688 7296 50  0000 L CNN
F 1 "220" H 3688 7205 50  0000 L CNN
F 2 "Modum:R_Array_Convex_4x0603" V 3520 7250 50  0001 C CNN
F 3 "https://pl.mouser.com/datasheet/2/315/AOC0000C14-1108062.pdf" H 3600 7250 50  0001 C CNN
	3    3600 7250
	-1   0    0    -1  
$EndComp
$Comp
L Connector:TestPoint TP1
U 1 1 61E73FC2
P 700 1350
F 0 "TP1" H 758 1468 50  0000 L CNN
F 1 "TestPt" H 758 1377 50  0000 L CNN
F 2 "TestPoint:TestPoint_Pad_1.0x1.0mm" H 900 1350 50  0001 C CNN
F 3 "~" H 900 1350 50  0001 C CNN
	1    700  1350
	0    -1   1    0   
$EndComp
Wire Wire Line
	700  1350 750  1350
$Comp
L power:GND #PWR?
U 1 1 61E9BDC1
P 6250 1050
F 0 "#PWR?" H 6250 800 50  0001 C CNN
F 1 "GND" H 6255 877 50  0000 C CNN
F 2 "" H 6250 1050 50  0001 C CNN
F 3 "" H 6250 1050 50  0001 C CNN
	1    6250 1050
	-1   0    0    -1  
$EndComp
$Comp
L power:GND #PWR?
U 1 1 61E9DD02
P 6650 1050
F 0 "#PWR?" H 6650 800 50  0001 C CNN
F 1 "GND" H 6655 877 50  0000 C CNN
F 2 "" H 6650 1050 50  0001 C CNN
F 3 "" H 6650 1050 50  0001 C CNN
	1    6650 1050
	-1   0    0    -1  
$EndComp
Wire Wire Line
	6650 850  6650 800 
Wire Wire Line
	6650 800  6550 800 
Wire Wire Line
	6350 800  6250 800 
Wire Wire Line
	6250 800  6250 850 
Connection ~ 6250 800 
Text Notes 3650 6900 0    50   ~ 0
I - PUMB 10 115\nII - PUMB 16 115\nIII (najslabiej) - PUMB 9 115
$Comp
L Modum:Tactile_Switch SW3
U 1 1 61F5FC75
P 4700 850
F 0 "SW3" H 4700 1135 50  0000 C CNN
F 1 "Tactile_Switch" H 4750 1050 50  0000 C CNN
F 2 "Button_Switch_SMD:SW_SPST_SKQG_WithStem" H 4700 1050 50  0001 C CNN
F 3 "https://pl.mouser.com/datasheet/2/60/pts526-1651200.pdf" H 4700 1050 50  0001 C CNN
	1    4700 850 
	1    0    0    -1  
$EndComp
$Comp
L Device:C_Small C6
U 1 1 61BC1C0A
P 4700 1150
F 0 "C6" V 4600 1150 50  0000 C CNN
F 1 "100nF" V 4800 1150 50  0000 C CNN
F 2 "Capacitor_SMD:C_0603_1608Metric_Pad1.08x0.95mm_HandSolder" H 4700 1150 50  0001 C CNN
F 3 "https://pl.mouser.com/datasheet/2/445/885012206095-1727433.pdf" H 4700 1150 50  0001 C CNN
F 4 "885012206095 " H 4700 1150 50  0001 C CNN "Name"
	1    4700 1150
	0    -1   -1   0   
$EndComp
$Comp
L power:GND #PWR?
U 1 1 61BCAAAC
P 4950 1150
F 0 "#PWR?" H 4950 900 50  0001 C CNN
F 1 "GND" H 4955 977 50  0000 C CNN
F 2 "" H 4950 1150 50  0001 C CNN
F 3 "" H 4950 1150 50  0001 C CNN
	1    4950 1150
	-1   0    0    -1  
$EndComp
Wire Wire Line
	4950 1150 4800 1150
Wire Wire Line
	6500 1550 6550 1550
Wire Wire Line
	6550 1550 6550 1850
Wire Wire Line
	6550 1850 6750 1850
Connection ~ 6550 1550
Wire Wire Line
	6500 1400 7400 1400
Wire Wire Line
	7400 1400 7400 1850
Wire Wire Line
	7400 1850 7250 1850
Connection ~ 7400 1400
$Comp
L power:GND #PWR?
U 1 1 61EB0CA1
P 7400 2150
F 0 "#PWR?" H 7400 1900 50  0001 C CNN
F 1 "GND" H 7405 1977 50  0000 C CNN
F 2 "" H 7400 2150 50  0001 C CNN
F 3 "" H 7400 2150 50  0001 C CNN
	1    7400 2150
	-1   0    0    -1  
$EndComp
Wire Wire Line
	7400 2150 7250 2150
$Comp
L power:GND #PWR?
U 1 1 61F1ED1B
P 6700 2050
F 0 "#PWR?" H 6700 1800 50  0001 C CNN
F 1 "GND" H 6705 1877 50  0000 C CNN
F 2 "" H 6700 2050 50  0001 C CNN
F 3 "" H 6700 2050 50  0001 C CNN
	1    6700 2050
	0    1    -1   0   
$EndComp
$Comp
L Device:R_Small R4
U 1 1 61FBB32A
P 4350 1000
F 0 "R4" H 4409 1046 50  0000 L CNN
F 1 "47" H 4409 955 50  0000 L CNN
F 2 "Resistor_SMD:R_0603_1608Metric_Pad0.98x0.95mm_HandSolder" H 4350 1000 50  0001 C CNN
F 3 "~" H 4350 1000 50  0001 C CNN
	1    4350 1000
	1    0    0    1   
$EndComp
Wire Wire Line
	4950 1150 4950 850 
Wire Wire Line
	4950 850  4900 850 
Wire Wire Line
	4500 850  4350 850 
Wire Wire Line
	4350 850  4350 900 
Wire Wire Line
	4350 1100 4350 1150
Wire Wire Line
	4350 1150 4600 1150
$Comp
L Modum:Tactile_Switch SW1
U 1 1 61FB5882
P 4600 1650
F 0 "SW1" H 4600 1935 50  0000 C CNN
F 1 "Tactile_Switch" H 4650 1850 50  0000 C CNN
F 2 "Button_Switch_SMD:SW_SPST_SKQG_WithStem" H 4600 1850 50  0001 C CNN
F 3 "https://pl.mouser.com/datasheet/2/60/pts526-1651200.pdf" H 4600 1850 50  0001 C CNN
	1    4600 1650
	-1   0    0    -1  
$EndComp
$Comp
L Device:R_Small R5
U 1 1 61FAD936
P 4950 1650
F 0 "R5" H 5009 1696 50  0000 L CNN
F 1 "4.7k" H 5009 1605 50  0000 L CNN
F 2 "Resistor_SMD:R_0603_1608Metric_Pad0.98x0.95mm_HandSolder" H 4950 1650 50  0001 C CNN
F 3 "~" H 4950 1650 50  0001 C CNN
	1    4950 1650
	0    1    -1   0   
$EndComp
Connection ~ 5750 2400
Connection ~ 5850 2500
Wire Wire Line
	3700 2400 5750 2400
Wire Wire Line
	3700 2500 5850 2500
$Comp
L Modum:Tactile_Switch SW2
U 1 1 620F2F51
P 4600 1750
F 0 "SW2" H 4600 2035 50  0000 C CNN
F 1 "Tactile_Switch" H 4650 1950 50  0000 C CNN
F 2 "Button_Switch_SMD:SW_SPST_SKQG_WithStem" H 4600 1950 50  0001 C CNN
F 3 "https://pl.mouser.com/datasheet/2/60/pts526-1651200.pdf" H 4600 1950 50  0001 C CNN
	1    4600 1750
	-1   0    0    1   
$EndComp
$Comp
L Device:R_Small R6
U 1 1 620F2F57
P 4950 1750
F 0 "R6" H 5009 1796 50  0000 L CNN
F 1 "4.7k" H 5009 1705 50  0000 L CNN
F 2 "Resistor_SMD:R_0603_1608Metric_Pad0.98x0.95mm_HandSolder" H 4950 1750 50  0001 C CNN
F 3 "~" H 4950 1750 50  0001 C CNN
	1    4950 1750
	0    1    1    0   
$EndComp
$Comp
L power:+3.3V #PWR?
U 1 1 6210840D
P 3500 1100
F 0 "#PWR?" H 3500 950 50  0001 C CNN
F 1 "+3.3V" H 3515 1273 50  0000 C CNN
F 2 "" H 3500 1100 50  0001 C CNN
F 3 "" H 3500 1100 50  0001 C CNN
	1    3500 1100
	1    0    0    -1  
$EndComp
$Comp
L power:+3.3V #PWR?
U 1 1 6210C064
P 5100 1600
F 0 "#PWR?" H 5100 1450 50  0001 C CNN
F 1 "+3.3V" H 5115 1773 50  0000 C CNN
F 2 "" H 5100 1600 50  0001 C CNN
F 3 "" H 5100 1600 50  0001 C CNN
	1    5100 1600
	1    0    0    -1  
$EndComp
$Comp
L power:GND #PWR?
U 1 1 6210C603
P 5100 1800
F 0 "#PWR?" H 5100 1550 50  0001 C CNN
F 1 "GND" H 5105 1627 50  0000 C CNN
F 2 "" H 5100 1800 50  0001 C CNN
F 3 "" H 5100 1800 50  0001 C CNN
	1    5100 1800
	-1   0    0    -1  
$EndComp
Wire Wire Line
	5100 1800 5100 1750
Wire Wire Line
	5100 1750 5050 1750
Wire Wire Line
	4850 1750 4800 1750
Wire Wire Line
	4800 1650 4850 1650
Wire Wire Line
	5050 1650 5100 1650
Wire Wire Line
	5100 1650 5100 1600
Wire Wire Line
	4400 1650 4350 1650
Wire Wire Line
	4350 1750 4400 1750
Connection ~ 4950 1150
Wire Wire Line
	4150 1300 4350 1300
Wire Wire Line
	4350 1300 4350 1150
Connection ~ 4150 1300
Connection ~ 4350 1150
Text Notes 5150 1600 0    50   ~ 0
BOOT0 = 1
Text Notes 5150 1850 0    50   ~ 0
BOOT0 = 0
Text Notes 4600 950  0    50   ~ 0
RESET
Wire Wire Line
	7050 850  7050 800 
$Comp
L Device:C_Small C9
U 1 1 622722DB
P 7050 1000
F 0 "C9" H 6959 954 50  0000 R CNN
F 1 "100nF" H 6959 1045 50  0000 R CNN
F 2 "Capacitor_SMD:C_0603_1608Metric_Pad1.08x0.95mm_HandSolder" H 7050 1000 50  0001 C CNN
F 3 "https://pl.mouser.com/datasheet/2/445/885012206095-1727433.pdf" H 7050 1000 50  0001 C CNN
F 4 "885012206095 " H 7050 1000 50  0001 C CNN "Name"
	1    7050 1000
	-1   0    0    1   
$EndComp
$Comp
L Device:CP1_Small C10
U 1 1 622722E1
P 7450 1000
F 0 "C10" H 7541 1046 50  0000 L CNN
F 1 "100uF" H 7541 955 50  0000 L CNN
F 2 "Capacitor_THT:CP_Radial_D5.0mm_P2.00mm" H 7450 1000 50  0001 C CNN
F 3 "https://pl.mouser.com/datasheet/2/445/860010372006-1725314.pdf" H 7450 1000 50  0001 C CNN
	1    7450 1000
	1    0    0    -1  
$EndComp
$Comp
L Device:R_Small R8
U 1 1 622722E7
P 7250 850
F 0 "R8" H 7309 896 50  0000 L CNN
F 1 "47" H 7309 805 50  0000 L CNN
F 2 "Resistor_SMD:R_0603_1608Metric_Pad0.98x0.95mm_HandSolder" H 7250 850 50  0001 C CNN
F 3 "~" H 7250 850 50  0001 C CNN
	1    7250 850 
	0    1    -1   0   
$EndComp
$Comp
L power:GND #PWR?
U 1 1 622722ED
P 7050 1100
F 0 "#PWR?" H 7050 850 50  0001 C CNN
F 1 "GND" H 7055 927 50  0000 C CNN
F 2 "" H 7050 1100 50  0001 C CNN
F 3 "" H 7050 1100 50  0001 C CNN
	1    7050 1100
	-1   0    0    -1  
$EndComp
$Comp
L power:GND #PWR?
U 1 1 622722F3
P 7450 1100
F 0 "#PWR?" H 7450 850 50  0001 C CNN
F 1 "GND" H 7455 927 50  0000 C CNN
F 2 "" H 7450 1100 50  0001 C CNN
F 3 "" H 7450 1100 50  0001 C CNN
	1    7450 1100
	-1   0    0    -1  
$EndComp
Wire Wire Line
	7450 900  7450 850 
Wire Wire Line
	7450 850  7350 850 
Wire Wire Line
	7150 850  7050 850 
Wire Wire Line
	7050 850  7050 900 
Connection ~ 7050 850 
Wire Wire Line
	6650 800  6650 550 
Connection ~ 6650 800 
Wire Wire Line
	7450 850  7450 800 
Connection ~ 7450 850 
Wire Wire Line
	6650 550  7850 550 
$Comp
L Jumper:SolderJumper_2_Bridged JP3
U 1 1 623B52EA
P 8300 1400
F 0 "JP3" H 8300 1250 50  0000 C CNN
F 1 "SolderJumper_2_Bridged" H 8300 1300 50  0000 C CNN
F 2 "Jumper:SolderJumper-2_P1.3mm_Bridged_RoundedPad1.0x1.5mm" H 8300 1400 50  0001 C CNN
F 3 "~" H 8300 1400 50  0001 C CNN
	1    8300 1400
	-1   0    0    1   
$EndComp
$Comp
L Jumper:SolderJumper_2_Bridged JP4
U 1 1 6244BCA6
P 8300 1550
F 0 "JP4" H 8300 1650 50  0000 C CNN
F 1 "SolderJumper_2_Bridged" H 8300 1700 50  0000 C CNN
F 2 "Jumper:SolderJumper-2_P1.3mm_Bridged_RoundedPad1.0x1.5mm" H 8300 1550 50  0001 C CNN
F 3 "~" H 8300 1550 50  0001 C CNN
	1    8300 1550
	-1   0    0    1   
$EndComp
$Comp
L Jumper:SolderJumper_2_Bridged JP1
U 1 1 62488677
P 7950 2350
F 0 "JP1" H 7950 2200 50  0000 C CNN
F 1 "SolderJumper_2_Bridged" H 7950 2250 50  0000 C CNN
F 2 "Jumper:SolderJumper-2_P1.3mm_Bridged_RoundedPad1.0x1.5mm" H 7950 2350 50  0001 C CNN
F 3 "~" H 7950 2350 50  0001 C CNN
	1    7950 2350
	-1   0    0    1   
$EndComp
$Comp
L Jumper:SolderJumper_2_Bridged JP2
U 1 1 6248867D
P 7950 2450
F 0 "JP2" H 7950 2550 50  0000 C CNN
F 1 "SolderJumper_2_Bridged" H 7950 2600 50  0000 C CNN
F 2 "Jumper:SolderJumper-2_P1.3mm_Bridged_RoundedPad1.0x1.5mm" H 7950 2450 50  0001 C CNN
F 3 "~" H 7950 2450 50  0001 C CNN
	1    7950 2450
	-1   0    0    1   
$EndComp
Wire Wire Line
	7400 1400 8150 1400
Wire Wire Line
	6550 1550 8150 1550
$Comp
L Jumper:SolderJumper_2_Bridged JP5
U 1 1 6255588A
P 8350 700
F 0 "JP5" H 8350 550 50  0000 C CNN
F 1 "SolderJumper_2_Bridged" H 8350 600 50  0000 C CNN
F 2 "Jumper:SolderJumper-2_P1.3mm_Bridged_RoundedPad1.0x1.5mm" H 8350 700 50  0001 C CNN
F 3 "~" H 8350 700 50  0001 C CNN
	1    8350 700 
	-1   0    0    1   
$EndComp
$Comp
L Jumper:SolderJumper_2_Bridged JP6
U 1 1 62555890
P 8350 800
F 0 "JP6" H 8350 900 50  0000 C CNN
F 1 "SolderJumper_2_Bridged" H 8350 950 50  0000 C CNN
F 2 "Jumper:SolderJumper-2_P1.3mm_Bridged_RoundedPad1.0x1.5mm" H 8350 800 50  0001 C CNN
F 3 "~" H 8350 800 50  0001 C CNN
	1    8350 800 
	-1   0    0    1   
$EndComp
Wire Wire Line
	8200 800  7800 800 
Connection ~ 7800 800 
Wire Wire Line
	7800 800  7800 1750
Wire Wire Line
	7800 800  7450 800 
Wire Wire Line
	8200 700  7850 700 
Wire Wire Line
	7850 700  7850 550 
$Comp
L Device:C_Small C1
U 1 1 62626541
P 1300 4550
F 0 "C1" V 1200 4550 50  0000 C CNN
F 1 "100nF" V 1400 4550 50  0000 C CNN
F 2 "Capacitor_SMD:C_0603_1608Metric_Pad1.08x0.95mm_HandSolder" H 1300 4550 50  0001 C CNN
F 3 "https://pl.mouser.com/datasheet/2/445/885012206095-1727433.pdf" H 1300 4550 50  0001 C CNN
F 4 "885012206095 " H 1300 4550 50  0001 C CNN "Name"
	1    1300 4550
	0    -1   -1   0   
$EndComp
Wire Wire Line
	1050 4500 1050 4550
Wire Wire Line
	1050 4550 1200 4550
Connection ~ 1050 4550
Wire Wire Line
	1050 4550 1050 4600
$Comp
L power:GND #PWR?
U 1 1 6265EB4A
P 1450 4600
F 0 "#PWR?" H 1450 4350 50  0001 C CNN
F 1 "GND" H 1455 4427 50  0000 C CNN
F 2 "" H 1450 4600 50  0001 C CNN
F 3 "" H 1450 4600 50  0001 C CNN
	1    1450 4600
	1    0    0    -1  
$EndComp
Wire Wire Line
	1450 4600 1450 4550
Wire Wire Line
	1450 4550 1400 4550
Wire Wire Line
	1450 4900 1900 4900
Wire Wire Line
	1850 5300 1850 5850
Wire Wire Line
	5850 2500 6600 2500
Wire Wire Line
	5100 5200 5900 5200
Wire Wire Line
	6600 3100 6600 5200
$Comp
L Connector_Generic:Conn_02x05_Odd_Even J10
U 1 1 61D2339B
P 6950 2050
F 0 "J10" H 7000 2500 50  0000 C CNN
F 1 "Conn_02x05" H 7000 2400 50  0000 C CNN
F 2 "Connector_PinHeader_2.54mm:PinHeader_2x05_P2.54mm_Vertical" H 6950 2050 50  0001 C CNN
F 3 "~" H 6950 2050 50  0001 C CNN
	1    6950 2050
	1    0    0    -1  
$EndComp
Connection ~ 7850 700 
$Comp
L power:+3.3V #PWR?
U 1 1 61D70491
P 7950 2000
F 0 "#PWR?" H 7950 1850 50  0001 C CNN
F 1 "+3.3V" H 7965 2173 50  0000 C CNN
F 2 "" H 7950 2000 50  0001 C CNN
F 3 "" H 7950 2000 50  0001 C CNN
	1    7950 2000
	1    0    0    -1  
$EndComp
$Comp
L power:GND #PWR?
U 1 1 61DD1E98
P 6700 2250
F 0 "#PWR?" H 6700 2000 50  0001 C CNN
F 1 "GND" H 6705 2077 50  0000 C CNN
F 2 "" H 6700 2250 50  0001 C CNN
F 3 "" H 6700 2250 50  0001 C CNN
	1    6700 2250
	0    1    -1   0   
$EndComp
Wire Wire Line
	6750 1950 6700 1950
Wire Wire Line
	6700 1950 6700 1750
Wire Wire Line
	6700 1750 7800 1750
Wire Wire Line
	7850 700  7850 1950
Wire Wire Line
	7250 1950 7850 1950
Wire Wire Line
	850  4300 850  4200
Wire Wire Line
	850  4200 900  4200
$Comp
L Connector:Conn_01x03_Male J8
U 1 1 61EF2ABE
P 6200 3000
F 0 "J8" V 6200 2800 50  0000 C CNN
F 1 "Conn_01x03_Male" V 6300 2550 50  0000 C CNN
F 2 "Connector_PinHeader_2.54mm:PinHeader_1x03_P2.54mm_Vertical" H 6200 3000 50  0001 C CNN
F 3 "~" H 6200 3000 50  0001 C CNN
	1    6200 3000
	1    0    0    -1  
$EndComp
Wire Wire Line
	5200 5100 5650 5100
Wire Wire Line
	5750 2400 6400 2400
$Comp
L Connector:Conn_01x03_Male J9
U 1 1 61EFFF04
P 6800 3000
F 0 "J9" V 6950 2850 50  0000 R CNN
F 1 "Conn_01x03_Male" V 6850 2850 50  0000 R CNN
F 2 "Connector_PinHeader_2.54mm:PinHeader_1x03_P2.54mm_Vertical" H 6800 3000 50  0001 C CNN
F 3 "~" H 6800 3000 50  0001 C CNN
	1    6800 3000
	-1   0    0    -1  
$EndComp
Wire Wire Line
	6400 3100 6400 5100
Wire Wire Line
	6400 2900 6400 2400
Wire Wire Line
	6600 2500 6600 2900
Wire Wire Line
	6600 3000 6550 3000
Wire Wire Line
	6400 3000 6450 3000
Wire Wire Line
	6450 3000 6450 2350
Wire Wire Line
	6700 2050 6750 2050
Wire Wire Line
	6750 2250 6700 2250
Wire Wire Line
	4050 5450 4050 4000
Wire Wire Line
	4150 3800 4150 5550
Wire Wire Line
	4050 4000 3700 4000
Wire Wire Line
	3700 3800 4150 3800
Wire Wire Line
	4500 4800 4500 6150
Wire Wire Line
	4400 5000 3700 5000
Wire Wire Line
	4400 5000 4400 5950
Wire Wire Line
	3700 4800 4500 4800
Wire Wire Line
	3950 6950 3950 7100
$Comp
L Device:R_Pack04_Split RN1
U 4 1 61C038A5
P 4650 7250
F 0 "RN1" H 4738 7296 50  0000 L CNN
F 1 "220" H 4738 7205 50  0000 L CNN
F 2 "Modum:R_Array_Convex_4x0603" V 4570 7250 50  0001 C CNN
F 3 "https://pl.mouser.com/datasheet/2/315/AOC0000C14-1108062.pdf" H 4650 7250 50  0001 C CNN
	4    4650 7250
	-1   0    0    -1  
$EndComp
$Comp
L Connector:Conn_Coaxial J12
U 1 1 62143155
P 10550 6050
F 0 "J12" H 10650 6025 50  0000 L CNN
F 1 "Conn_Coaxial" H 10650 5934 50  0000 L CNN
F 2 "Modum_footprints:RCA_156-009x-E" H 10550 6050 50  0001 C CNN
F 3 "https://pl.mouser.com/datasheet/2/209/KC_301520-2836000.pdf" H 10550 6050 50  0001 C CNN
	1    10550 6050
	1    0    0    -1  
$EndComp
$Comp
L Connector:Conn_Coaxial J11
U 1 1 6214BF7C
P 10550 5350
F 0 "J11" H 10650 5325 50  0000 L CNN
F 1 "Conn_Coaxial" H 10650 5234 50  0000 L CNN
F 2 "Modum_footprints:RCA_156-009x-E" H 10550 5350 50  0001 C CNN
F 3 "https://pl.mouser.com/datasheet/2/209/KC_301520-2836000.pdf" H 10550 5350 50  0001 C CNN
	1    10550 5350
	1    0    0    -1  
$EndComp
$Comp
L power:GND #PWR?
U 1 1 6214FF21
P 10550 5550
F 0 "#PWR?" H 10550 5300 50  0001 C CNN
F 1 "GND" H 10555 5377 50  0000 C CNN
F 2 "" H 10550 5550 50  0001 C CNN
F 3 "" H 10550 5550 50  0001 C CNN
	1    10550 5550
	1    0    0    -1  
$EndComp
$Comp
L power:GND #PWR?
U 1 1 621515A1
P 10550 6250
F 0 "#PWR?" H 10550 6000 50  0001 C CNN
F 1 "GND" H 10555 6077 50  0000 C CNN
F 2 "" H 10550 6250 50  0001 C CNN
F 3 "" H 10550 6250 50  0001 C CNN
	1    10550 6250
	1    0    0    -1  
$EndComp
Text Notes 10350 5050 0    50   ~ 0
Wyjscia audio
$Comp
L Connector:TestPoint TP12
U 1 1 621704A4
P 10350 5150
F 0 "TP12" V 10304 5338 50  0000 L CNN
F 1 "TestPoint" V 10395 5338 50  0000 L CNN
F 2 "TestPoint:TestPoint_THTPad_D2.5mm_Drill1.2mm" H 10550 5150 50  0001 C CNN
F 3 "~" H 10550 5150 50  0001 C CNN
	1    10350 5150
	0    1    1    0   
$EndComp
$Comp
L Connector:TestPoint TP13
U 1 1 62172393
P 10350 5850
F 0 "TP13" V 10304 6038 50  0000 L CNN
F 1 "TestPoint" V 10395 6038 50  0000 L CNN
F 2 "TestPoint:TestPoint_THTPad_D2.5mm_Drill1.2mm" H 10550 5850 50  0001 C CNN
F 3 "~" H 10550 5850 50  0001 C CNN
	1    10350 5850
	0    1    1    0   
$EndComp
Wire Wire Line
	10350 5150 10300 5150
Wire Wire Line
	10300 5150 10300 5350
Wire Wire Line
	10300 5350 10350 5350
Connection ~ 10300 5350
Wire Wire Line
	10350 5850 10300 5850
Wire Wire Line
	10300 5850 10300 6050
Wire Wire Line
	10300 6050 10350 6050
Connection ~ 10300 6050
Text Notes 7050 6650 0    50   ~ 0
Przy annotate pilnowac by nie zmieniac kolejnosci elementow multipart!!!
Wire Wire Line
	1400 3900 1900 3900
Wire Wire Line
	1400 3800 1900 3800
Wire Wire Line
	1400 4100 1900 4100
Wire Wire Line
	1400 4000 1900 4000
Wire Wire Line
	1400 4200 1900 4200
Wire Wire Line
	850  4300 1900 4300
Wire Wire Line
	850  4000 900  4000
Wire Wire Line
	900  4100 800  4100
Wire Wire Line
	800  4100 800  4350
Wire Wire Line
	800  4350 1850 4350
Wire Wire Line
	3850 1350 3850 1100
Wire Wire Line
	3850 1450 3850 1350
Connection ~ 3850 1350
Text GLabel 3850 1450 3    50   UnSpc ~ 0
SWDIO
Text GLabel 3750 1450 3    50   UnSpc ~ 0
SWDCLK
Wire Wire Line
	3850 1350 4000 1350
Wire Wire Line
	4000 1350 4000 3300
Wire Wire Line
	3750 1100 3750 1400
Wire Wire Line
	3750 1400 4050 1400
Connection ~ 3750 1400
Wire Wire Line
	3750 1400 3750 1450
Wire Wire Line
	4050 1400 4050 1700
Wire Wire Line
	4350 1650 4350 1700
Wire Wire Line
	4050 1700 4350 1700
Connection ~ 4050 1700
Wire Wire Line
	4050 1700 4050 3400
Connection ~ 4350 1700
Wire Wire Line
	4350 1700 4350 1750
Wire Wire Line
	1400 2100 1450 2100
Wire Wire Line
	1450 2100 1450 2150
Wire Wire Line
	1450 2150 1550 2150
Wire Wire Line
	1550 2150 1550 2200
Wire Wire Line
	1550 2200 1900 2200
Wire Wire Line
	1400 2200 1500 2200
Wire Wire Line
	1500 2200 1500 2100
Wire Wire Line
	1500 2100 1900 2100
Wire Wire Line
	7250 2250 7300 2250
Wire Wire Line
	7300 2250 7300 2350
Wire Wire Line
	6550 2150 6750 2150
Wire Wire Line
	6550 2150 6550 2450
Wire Wire Line
	6450 2350 7300 2350
Wire Wire Line
	7300 2350 7800 2350
Connection ~ 7300 2350
Wire Wire Line
	6550 2450 7800 2450
Connection ~ 6550 2450
Wire Wire Line
	6550 2450 6550 3000
$Comp
L Jumper:SolderJumper_2_Bridged JP7
U 1 1 61F25577
P 8450 2050
F 0 "JP7" H 8450 1900 50  0000 C CNN
F 1 "SolderJumper_2_Bridged" H 8450 1950 50  0000 C CNN
F 2 "Jumper:SolderJumper-2_P1.3mm_Bridged_RoundedPad1.0x1.5mm" H 8450 2050 50  0001 C CNN
F 3 "~" H 8450 2050 50  0001 C CNN
	1    8450 2050
	-1   0    0    1   
$EndComp
Wire Wire Line
	7950 2000 7950 2050
Wire Wire Line
	7250 2050 7950 2050
Wire Wire Line
	7950 2050 8300 2050
Connection ~ 7950 2050
NoConn ~ 8600 2050
$Comp
L Device:LED_Small D3
U 1 1 61CE1EA6
P 3600 7500
F 0 "D3" V 3646 7430 50  0000 R CNN
F 1 "R/G" V 3555 7430 50  0000 R CNN
F 2 "LED_SMD:LED_0603_1608Metric_Pad1.05x0.95mm_HandSolder" V 3600 7500 50  0001 C CNN
F 3 "~" V 3600 7500 50  0001 C CNN
	1    3600 7500
	0    1    -1   0   
$EndComp
$Comp
L Device:LED_Small D1
U 1 1 61C105A0
P 4300 7500
F 0 "D1" V 4346 7430 50  0000 R CNN
F 1 "R/G" V 4255 7430 50  0000 R CNN
F 2 "LED_SMD:LED_0603_1608Metric_Pad1.05x0.95mm_HandSolder" V 4300 7500 50  0001 C CNN
F 3 "~" V 4300 7500 50  0001 C CNN
	1    4300 7500
	0    1    -1   0   
$EndComp
$Comp
L Device:R_Small R10
U 1 1 61CEE20D
P 5900 4950
F 0 "R10" H 5959 4996 50  0000 L CNN
F 1 "4.7k" H 5959 4905 50  0000 L CNN
F 2 "Resistor_SMD:R_0603_1608Metric_Pad0.98x0.95mm_HandSolder" H 5900 4950 50  0001 C CNN
F 3 "~" H 5900 4950 50  0001 C CNN
	1    5900 4950
	1    0    0    1   
$EndComp
$Comp
L Device:R_Small R9
U 1 1 61CFE8FC
P 5650 4950
F 0 "R9" H 5709 4996 50  0000 L CNN
F 1 "4.7k" H 5709 4905 50  0000 L CNN
F 2 "Resistor_SMD:R_0603_1608Metric_Pad0.98x0.95mm_HandSolder" H 5650 4950 50  0001 C CNN
F 3 "~" H 5650 4950 50  0001 C CNN
	1    5650 4950
	-1   0    0    1   
$EndComp
Wire Wire Line
	5650 5050 5650 5100
Wire Wire Line
	5900 5050 5900 5200
Connection ~ 5900 5200
Wire Wire Line
	5900 5200 6600 5200
$Comp
L power:+3.3V #PWR?
U 1 1 61D3B301
P 5900 4850
F 0 "#PWR?" H 5900 4700 50  0001 C CNN
F 1 "+3.3V" H 5915 5023 50  0000 C CNN
F 2 "" H 5900 4850 50  0001 C CNN
F 3 "" H 5900 4850 50  0001 C CNN
	1    5900 4850
	1    0    0    -1  
$EndComp
$Comp
L power:+3.3V #PWR?
U 1 1 61D3C424
P 5650 4850
F 0 "#PWR?" H 5650 4700 50  0001 C CNN
F 1 "+3.3V" H 5665 5023 50  0000 C CNN
F 2 "" H 5650 4850 50  0001 C CNN
F 3 "" H 5650 4850 50  0001 C CNN
	1    5650 4850
	1    0    0    -1  
$EndComp
Connection ~ 5650 5100
Wire Wire Line
	5650 5100 6400 5100
NoConn ~ 1900 2400
NoConn ~ 1900 2500
NoConn ~ 1900 2800
NoConn ~ 1900 2900
NoConn ~ 1900 3200
NoConn ~ 1900 3300
NoConn ~ 1900 3400
NoConn ~ 1900 3500
NoConn ~ 1900 5000
NoConn ~ 3700 3500
NoConn ~ 3700 2700
NoConn ~ 3700 2600
NoConn ~ 3700 2300
NoConn ~ 3700 2200
NoConn ~ 3700 2100
NoConn ~ 3700 2000
$Comp
L 2021-12-06_18-53-17:MCP4451-502E_ST U5
U 1 1 61DF8F30
P 9900 3600
F 0 "U5" H 11300 3987 60  0000 C CNN
F 1 "MCP4451-502E_ST" H 11300 3881 60  0000 C CNN
F 2 "footprints:MCP4451-502E&slash_ST" H 11300 3840 60  0001 C CNN
F 3 "" H 9900 3600 60  0000 C CNN
	1    9900 3600
	0    -1   -1   0   
$EndComp
$Comp
L Amplifier_Operational:OPA376xxD U3
U 1 1 61E3DD32
P 7900 4550
F 0 "U3" H 8244 4596 50  0000 L CNN
F 1 "OPA376xxD" H 8244 4505 50  0000 L CNN
F 2 "Package_SO:SOIC-8_3.9x4.9mm_P1.27mm" H 7800 4350 50  0001 L CNN
F 3 "http://www.ti.com/lit/ds/symlink/opa376.pdf" H 8050 4700 50  0001 C CNN
	1    7900 4550
	1    0    0    1   
$EndComp
$Comp
L Amplifier_Operational:OPA376xxD U4
U 1 1 61E41FD8
P 9400 4550
F 0 "U4" H 9744 4596 50  0000 L CNN
F 1 "OPA376xxD" H 9744 4505 50  0000 L CNN
F 2 "Package_SO:SOIC-8_3.9x4.9mm_P1.27mm" H 9300 4350 50  0001 L CNN
F 3 "http://www.ti.com/lit/ds/symlink/opa376.pdf" H 9550 4700 50  0001 C CNN
	1    9400 4550
	1    0    0    1   
$EndComp
$Comp
L Device:R R13
U 1 1 61E438BA
P 7350 4450
F 0 "R13" V 7550 4400 50  0000 L CNN
F 1 "20R" V 7450 4400 50  0000 L CNN
F 2 "Resistor_SMD:R_0603_1608Metric_Pad0.98x0.95mm_HandSolder" V 7280 4450 50  0001 C CNN
F 3 "~" H 7350 4450 50  0001 C CNN
	1    7350 4450
	0    -1   -1   0   
$EndComp
$Comp
L Device:R R17
U 1 1 61E44FFF
P 8850 4450
F 0 "R17" V 9050 4400 50  0000 L CNN
F 1 "20R" V 8950 4400 50  0000 L CNN
F 2 "Resistor_SMD:R_0603_1608Metric_Pad0.98x0.95mm_HandSolder" V 8780 4450 50  0001 C CNN
F 3 "~" H 8850 4450 50  0001 C CNN
	1    8850 4450
	0    -1   -1   0   
$EndComp
$Comp
L Device:R R14
U 1 1 61E46438
P 8000 3850
F 0 "R14" V 8200 3750 50  0000 L CNN
F 1 "5k" V 8100 3800 50  0000 L CNN
F 2 "Resistor_SMD:R_0603_1608Metric_Pad0.98x0.95mm_HandSolder" V 7930 3850 50  0001 C CNN
F 3 "~" H 8000 3850 50  0001 C CNN
	1    8000 3850
	0    -1   -1   0   
$EndComp
$Comp
L Device:R R18
U 1 1 61E47769
P 9500 3950
F 0 "R18" V 9600 3950 50  0000 L CNN
F 1 "5k" V 9600 3850 50  0000 L CNN
F 2 "Resistor_SMD:R_0603_1608Metric_Pad0.98x0.95mm_HandSolder" V 9430 3950 50  0001 C CNN
F 3 "~" H 9500 3950 50  0001 C CNN
	1    9500 3950
	0    -1   -1   0   
$EndComp
$Comp
L Device:R R11
U 1 1 61E48A08
P 7150 4950
F 0 "R11" H 7220 4996 50  0000 L CNN
F 1 "10k" H 7220 4905 50  0000 L CNN
F 2 "Resistor_SMD:R_0603_1608Metric_Pad0.98x0.95mm_HandSolder" V 7080 4950 50  0001 C CNN
F 3 "~" H 7150 4950 50  0001 C CNN
	1    7150 4950
	1    0    0    -1  
$EndComp
$Comp
L Device:R R12
U 1 1 61E49EDF
P 7150 5450
F 0 "R12" H 7220 5496 50  0000 L CNN
F 1 "10k" H 7220 5405 50  0000 L CNN
F 2 "Resistor_SMD:R_0603_1608Metric_Pad0.98x0.95mm_HandSolder" V 7080 5450 50  0001 C CNN
F 3 "~" H 7150 5450 50  0001 C CNN
	1    7150 5450
	1    0    0    -1  
$EndComp
$Comp
L Device:R R16
U 1 1 61E4A63C
P 8600 5500
F 0 "R16" H 8670 5546 50  0000 L CNN
F 1 "10k" H 8670 5455 50  0000 L CNN
F 2 "Resistor_SMD:R_0603_1608Metric_Pad0.98x0.95mm_HandSolder" V 8530 5500 50  0001 C CNN
F 3 "~" H 8600 5500 50  0001 C CNN
	1    8600 5500
	1    0    0    -1  
$EndComp
$Comp
L Device:R R15
U 1 1 61E4B9D6
P 8600 5000
F 0 "R15" H 8670 5046 50  0000 L CNN
F 1 "10k" H 8670 4955 50  0000 L CNN
F 2 "Resistor_SMD:R_0603_1608Metric_Pad0.98x0.95mm_HandSolder" V 8530 5000 50  0001 C CNN
F 3 "~" H 8600 5000 50  0001 C CNN
	1    8600 5000
	1    0    0    -1  
$EndComp
$Comp
L Device:C C11
U 1 1 61E4CDF3
P 6900 5450
F 0 "C11" H 6700 5500 50  0000 L CNN
F 1 "100n" H 6650 5400 50  0000 L CNN
F 2 "Capacitor_SMD:C_0603_1608Metric_Pad1.08x0.95mm_HandSolder" H 6938 5300 50  0001 C CNN
F 3 "~" H 6900 5450 50  0001 C CNN
	1    6900 5450
	1    0    0    -1  
$EndComp
$Comp
L Device:CP1 C14
U 1 1 61E521A9
P 9100 2950
F 0 "C14" H 8985 2904 50  0000 R CNN
F 1 "100u" H 8985 2995 50  0000 R CNN
F 2 "Capacitor_THT:CP_Radial_D5.0mm_P2.00mm" H 9100 2950 50  0001 C CNN
F 3 "~" H 9100 2950 50  0001 C CNN
	1    9100 2950
	-1   0    0    1   
$EndComp
$Comp
L Device:CP1 C13
U 1 1 61E54A42
P 8800 2950
F 0 "C13" H 9000 2900 50  0000 R CNN
F 1 "100u" H 9050 3000 50  0000 R CNN
F 2 "Capacitor_THT:CP_Radial_D5.0mm_P2.00mm" H 8800 2950 50  0001 C CNN
F 3 "~" H 8800 2950 50  0001 C CNN
	1    8800 2950
	-1   0    0    1   
$EndComp
$Comp
L power:GND #PWR?
U 1 1 61E55E65
P 7150 5600
F 0 "#PWR?" H 7150 5350 50  0001 C CNN
F 1 "GND" H 7155 5427 50  0000 C CNN
F 2 "" H 7150 5600 50  0001 C CNN
F 3 "" H 7150 5600 50  0001 C CNN
	1    7150 5600
	1    0    0    -1  
$EndComp
$Comp
L power:GND #PWR?
U 1 1 61E56C2E
P 6900 5600
F 0 "#PWR?" H 6900 5350 50  0001 C CNN
F 1 "GND" H 6905 5427 50  0000 C CNN
F 2 "" H 6900 5600 50  0001 C CNN
F 3 "" H 6900 5600 50  0001 C CNN
	1    6900 5600
	1    0    0    -1  
$EndComp
$Comp
L power:GND #PWR?
U 1 1 61E58A26
P 8600 5650
F 0 "#PWR?" H 8600 5400 50  0001 C CNN
F 1 "GND" H 8605 5477 50  0000 C CNN
F 2 "" H 8600 5650 50  0001 C CNN
F 3 "" H 8600 5650 50  0001 C CNN
	1    8600 5650
	1    0    0    -1  
$EndComp
Wire Wire Line
	10700 3600 10750 3600
Wire Wire Line
	9900 3600 10000 3600
Wire Wire Line
	10750 3600 10750 3700
Connection ~ 10750 3600
Wire Wire Line
	10750 3600 10800 3600
Wire Wire Line
	7500 4450 7550 4450
Wire Wire Line
	9000 4450 9050 4450
Wire Wire Line
	8450 1550 8800 1550
Wire Wire Line
	8800 1550 8800 2250
Wire Wire Line
	9100 2800 9100 2250
Connection ~ 9900 3600
Wire Wire Line
	8700 3900 10600 3900
Wire Wire Line
	8700 3900 8700 4450
Wire Wire Line
	7550 3850 7850 3850
Connection ~ 7550 4450
Wire Wire Line
	7550 4450 7600 4450
Wire Wire Line
	8150 3850 8400 3850
Wire Wire Line
	8400 4550 8200 4550
Wire Wire Line
	9050 3950 9350 3950
Connection ~ 9050 4450
Wire Wire Line
	9050 4450 9100 4450
Wire Wire Line
	9950 4550 9700 4550
Wire Wire Line
	7600 4650 7450 4650
Wire Wire Line
	7450 4650 7450 5200
Wire Wire Line
	7150 5200 7450 5200
Wire Wire Line
	9100 4650 8900 4650
Wire Wire Line
	8900 4650 8900 5250
Wire Wire Line
	7150 5300 7150 5200
Wire Wire Line
	7150 5100 7150 5200
Connection ~ 7150 5200
Wire Wire Line
	7150 5200 6900 5200
Wire Wire Line
	6900 5200 6900 5300
Wire Wire Line
	8350 5350 8350 5250
Wire Wire Line
	8350 5250 8600 5250
Wire Wire Line
	8600 5250 8600 5150
Wire Wire Line
	8600 5350 8600 5250
Connection ~ 8600 5250
Wire Wire Line
	8600 5250 8900 5250
Wire Wire Line
	10100 5350 10300 5350
Wire Wire Line
	10100 6050 10300 6050
Wire Wire Line
	9800 5350 9800 4800
Wire Wire Line
	9800 4800 9950 4800
Wire Wire Line
	9950 4800 9950 4550
Connection ~ 9950 4550
Wire Wire Line
	8400 4550 8400 4850
Wire Wire Line
	8400 4850 8100 4850
Wire Wire Line
	8100 4850 8100 6050
Wire Wire Line
	8100 6050 9800 6050
Connection ~ 8400 4550
$Comp
L power:GND #PWR?
U 1 1 62AE4CCD
P 8000 4250
F 0 "#PWR?" H 8000 4000 50  0001 C CNN
F 1 "GND" H 8005 4077 50  0000 C CNN
F 2 "" H 8000 4250 50  0001 C CNN
F 3 "" H 8000 4250 50  0001 C CNN
	1    8000 4250
	1    0    0    -1  
$EndComp
$Comp
L power:GND #PWR?
U 1 1 62AE5DD0
P 9500 4200
F 0 "#PWR?" H 9500 3950 50  0001 C CNN
F 1 "GND" H 9505 4027 50  0000 C CNN
F 2 "" H 9500 4200 50  0001 C CNN
F 3 "" H 9500 4200 50  0001 C CNN
	1    9500 4200
	1    0    0    -1  
$EndComp
Text GLabel 8500 700  2    50   Input ~ 0
+9V
Text GLabel 7150 4800 1    50   Input ~ 0
+9V
Text GLabel 8600 4850 1    50   Input ~ 0
+9V
Text GLabel 7700 5150 0    50   Input ~ 0
+9V
Text GLabel 9200 5100 0    50   Input ~ 0
+9V
$Comp
L power:GND #PWR?
U 1 1 62B577C1
P 10500 3600
F 0 "#PWR?" H 10500 3350 50  0001 C CNN
F 1 "GND" H 10505 3427 50  0000 C CNN
F 2 "" H 10500 3600 50  0001 C CNN
F 3 "" H 10500 3600 50  0001 C CNN
	1    10500 3600
	1    0    0    -1  
$EndComp
Wire Wire Line
	8450 2350 8100 2350
Wire Wire Line
	8250 2450 8100 2450
Wire Wire Line
	9100 1400 8450 1400
Wire Wire Line
	9100 3600 9900 3600
$Comp
L Connector:Conn_01x03_Male J13
U 1 1 62CD2643
P 9200 1150
F 0 "J13" H 9308 1431 50  0000 C CNN
F 1 "Conn_01x03_Male" H 9308 1340 50  0000 C CNN
F 2 "Connector_PinHeader_2.54mm:PinHeader_1x03_P2.54mm_Vertical" H 9200 1150 50  0001 C CNN
F 3 "~" H 9200 1150 50  0001 C CNN
	1    9200 1150
	1    0    0    -1  
$EndComp
Wire Wire Line
	9100 3100 9100 3600
Wire Wire Line
	8800 3100 8800 3700
Wire Wire Line
	8800 3700 10750 3700
Wire Wire Line
	10600 3600 10600 3900
Wire Wire Line
	10100 3600 10100 3750
Wire Wire Line
	7200 3750 7200 4450
Wire Wire Line
	7200 3750 10100 3750
Wire Wire Line
	8450 3650 10300 3650
Wire Wire Line
	10300 3650 10300 3600
Wire Wire Line
	8450 2350 8450 3650
Wire Wire Line
	10400 3600 10400 3800
Wire Wire Line
	10400 3800 8250 3800
Wire Wire Line
	8250 2450 8250 3800
Wire Wire Line
	10200 3600 10200 3850
Wire Wire Line
	10300 650  10300 800 
Wire Wire Line
	9550 650  10300 650 
Wire Wire Line
	9550 1150 9400 1150
Wire Wire Line
	9550 650  9550 1150
Wire Wire Line
	10400 800  10400 550 
Wire Wire Line
	10400 550  9400 550 
Wire Wire Line
	9400 550  9400 1050
Wire Wire Line
	10200 800  10200 750 
Wire Wire Line
	10200 750  9000 750 
Wire Wire Line
	9000 750  9000 800 
Wire Wire Line
	9000 800  8850 800 
Wire Wire Line
	9450 1250 9450 3850
Wire Wire Line
	9450 3850 10200 3850
Wire Wire Line
	9450 1250 9400 1250
Wire Wire Line
	8400 3850 8400 4550
Wire Wire Line
	7550 3850 7550 4450
Connection ~ 2450 1350
Wire Wire Line
	2250 1350 2450 1350
Wire Wire Line
	2450 1350 2800 1350
Wire Wire Line
	4100 5500 3150 5500
Wire Wire Line
	3000 1800 3000 1200
$Comp
L Modum:STM32G071RxTx U2
U 1 1 61AE41CF
P 2800 3650
F 0 "U2" H 2150 5400 50  0000 C CNN
F 1 "STM32G071RxTx" H 3250 5400 50  0000 C CNN
F 2 "Modum:QFP-64_10x10_Pitch0.5mm" H 2100 5750 50  0001 C CNN
F 3 "https://pl.mouser.com/datasheet/2/389/dm00412180-1799303.pdf" H 2100 5750 50  0001 C CNN
	1    2800 3650
	1    0    0    -1  
$EndComp
$Comp
L Device:C_Small C5
U 1 1 61B72431
P 2450 1500
F 0 "C5" H 2359 1454 50  0000 R CNN
F 1 "100nF" H 2359 1545 50  0000 R CNN
F 2 "Capacitor_SMD:C_0603_1608Metric_Pad1.08x0.95mm_HandSolder" H 2450 1500 50  0001 C CNN
F 3 "https://pl.mouser.com/datasheet/2/445/885012206095-1727433.pdf" H 2450 1500 50  0001 C CNN
F 4 "885012206095 " H 2450 1500 50  0001 C CNN "Name"
	1    2450 1500
	-1   0    0    1   
$EndComp
$Comp
L power:GND #PWR?
U 1 1 61B72437
P 2450 1650
F 0 "#PWR?" H 2450 1400 50  0001 C CNN
F 1 "GND" H 2455 1477 50  0000 C CNN
F 2 "" H 2450 1650 50  0001 C CNN
F 3 "" H 2450 1650 50  0001 C CNN
	1    2450 1650
	-1   0    0    -1  
$EndComp
Wire Wire Line
	2450 1600 2450 1650
Wire Wire Line
	2450 1400 2450 1350
$Comp
L Device:C_Small C17
U 1 1 61F2CD58
P 7800 5350
F 0 "C17" H 7709 5304 50  0000 R CNN
F 1 "100nF" H 7709 5395 50  0000 R CNN
F 2 "Capacitor_SMD:C_0603_1608Metric_Pad1.08x0.95mm_HandSolder" H 7800 5350 50  0001 C CNN
F 3 "https://pl.mouser.com/datasheet/2/445/885012206095-1727433.pdf" H 7800 5350 50  0001 C CNN
F 4 "885012206095 " H 7800 5350 50  0001 C CNN "Name"
	1    7800 5350
	-1   0    0    1   
$EndComp
$Comp
L power:GND #PWR?
U 1 1 61F2CD5E
P 7800 5450
F 0 "#PWR?" H 7800 5200 50  0001 C CNN
F 1 "GND" H 7805 5277 50  0000 C CNN
F 2 "" H 7800 5450 50  0001 C CNN
F 3 "" H 7800 5450 50  0001 C CNN
	1    7800 5450
	-1   0    0    -1  
$EndComp
Wire Wire Line
	9300 4250 9300 4150
$Comp
L Device:C_Small C18
U 1 1 620004D4
P 9300 5300
F 0 "C18" H 9209 5254 50  0000 R CNN
F 1 "100nF" H 9209 5345 50  0000 R CNN
F 2 "Capacitor_SMD:C_0603_1608Metric_Pad1.08x0.95mm_HandSolder" H 9300 5300 50  0001 C CNN
F 3 "https://pl.mouser.com/datasheet/2/445/885012206095-1727433.pdf" H 9300 5300 50  0001 C CNN
F 4 "885012206095 " H 9300 5300 50  0001 C CNN "Name"
	1    9300 5300
	-1   0    0    1   
$EndComp
$Comp
L power:GND #PWR?
U 1 1 620004DA
P 9300 5400
F 0 "#PWR?" H 9300 5150 50  0001 C CNN
F 1 "GND" H 9305 5227 50  0000 C CNN
F 2 "" H 9300 5400 50  0001 C CNN
F 3 "" H 9300 5400 50  0001 C CNN
	1    9300 5400
	-1   0    0    -1  
$EndComp
Wire Wire Line
	9950 3950 9650 3950
Wire Wire Line
	9950 3950 9950 4550
Wire Wire Line
	9050 3950 9050 4450
$Comp
L power:GND #PWR?
U 1 1 61E59D0B
P 8350 5650
F 0 "#PWR?" H 8350 5400 50  0001 C CNN
F 1 "GND" H 8355 5477 50  0000 C CNN
F 2 "" H 8350 5650 50  0001 C CNN
F 3 "" H 8350 5650 50  0001 C CNN
	1    8350 5650
	1    0    0    -1  
$EndComp
$Comp
L Device:C C12
U 1 1 61E4EC84
P 8350 5500
F 0 "C12" H 8150 5550 50  0000 L CNN
F 1 "100n" H 8100 5450 50  0000 L CNN
F 2 "Capacitor_SMD:C_0603_1608Metric_Pad1.08x0.95mm_HandSolder" H 8388 5350 50  0001 C CNN
F 3 "~" H 8350 5500 50  0001 C CNN
	1    8350 5500
	1    0    0    -1  
$EndComp
NoConn ~ 10800 800 
NoConn ~ 10700 800 
NoConn ~ 10600 800 
NoConn ~ 10100 800 
NoConn ~ 10000 800 
NoConn ~ 9900 800 
$Comp
L Device:R R19
U 1 1 61F3E163
P 8950 2450
F 0 "R19" H 8750 2500 50  0000 L CNN
F 1 "2.2Meg" H 8650 2400 50  0000 L CNN
F 2 "Resistor_SMD:R_0603_1608Metric_Pad0.98x0.95mm_HandSolder" V 8880 2450 50  0001 C CNN
F 3 "~" H 8950 2450 50  0001 C CNN
	1    8950 2450
	1    0    0    -1  
$EndComp
$Comp
L Device:R R20
U 1 1 61F3FFA8
P 9250 2450
F 0 "R20" H 9320 2496 50  0000 L CNN
F 1 "2.2Meg" H 9320 2405 50  0000 L CNN
F 2 "Resistor_SMD:R_0603_1608Metric_Pad0.98x0.95mm_HandSolder" V 9180 2450 50  0001 C CNN
F 3 "~" H 9250 2450 50  0001 C CNN
	1    9250 2450
	1    0    0    -1  
$EndComp
$Comp
L power:GND #PWR?
U 1 1 61F4063E
P 9250 2600
F 0 "#PWR?" H 9250 2350 50  0001 C CNN
F 1 "GND" H 9255 2427 50  0000 C CNN
F 2 "" H 9250 2600 50  0001 C CNN
F 3 "" H 9250 2600 50  0001 C CNN
	1    9250 2600
	1    0    0    -1  
$EndComp
$Comp
L power:GND #PWR?
U 1 1 61F425C6
P 8950 2600
F 0 "#PWR?" H 8950 2350 50  0001 C CNN
F 1 "GND" H 8955 2427 50  0000 C CNN
F 2 "" H 8950 2600 50  0001 C CNN
F 3 "" H 8950 2600 50  0001 C CNN
	1    8950 2600
	1    0    0    -1  
$EndComp
Wire Wire Line
	9250 2300 9250 2250
Wire Wire Line
	9250 2250 9100 2250
Connection ~ 9100 2250
Wire Wire Line
	9100 2250 9100 1400
Wire Wire Line
	8950 2300 8950 2250
Wire Wire Line
	8950 2250 8800 2250
Connection ~ 8800 2250
Wire Wire Line
	8800 2250 8800 2800
$Comp
L Device:C C19
U 1 1 61F9B99B
P 8850 1100
F 0 "C19" H 8965 1146 50  0000 L CNN
F 1 "100n" H 8965 1055 50  0000 L CNN
F 2 "Capacitor_SMD:C_0603_1608Metric_Pad1.08x0.95mm_HandSolder" H 8888 950 50  0001 C CNN
F 3 "~" H 8850 1100 50  0001 C CNN
	1    8850 1100
	1    0    0    -1  
$EndComp
$Comp
L power:GND #PWR?
U 1 1 61F9E2D2
P 8850 1250
F 0 "#PWR?" H 8850 1000 50  0001 C CNN
F 1 "GND" H 8855 1077 50  0000 C CNN
F 2 "" H 8850 1250 50  0001 C CNN
F 3 "" H 8850 1250 50  0001 C CNN
	1    8850 1250
	1    0    0    -1  
$EndComp
Wire Wire Line
	8850 950  8850 800 
Connection ~ 8850 800 
Wire Wire Line
	8850 800  8500 800 
$Comp
L Device:CP1 C15
U 1 1 61FEDDC6
P 9950 5350
F 0 "C15" H 10200 5300 50  0000 R CNN
F 1 "10u" H 10200 5400 50  0000 R CNN
F 2 "Capacitor_THT:CP_Radial_D5.0mm_P2.00mm" H 9950 5350 50  0001 C CNN
F 3 "~" H 9950 5350 50  0001 C CNN
	1    9950 5350
	0    1    1    0   
$EndComp
$Comp
L Device:CP1 C16
U 1 1 61FF09A5
P 9950 6050
F 0 "C16" H 10200 6000 50  0000 R CNN
F 1 "10u" H 10200 6100 50  0000 R CNN
F 2 "Capacitor_THT:CP_Radial_D5.0mm_P2.00mm" H 9950 6050 50  0001 C CNN
F 3 "~" H 9950 6050 50  0001 C CNN
	1    9950 6050
	0    1    1    0   
$EndComp
Wire Wire Line
	7800 4850 7800 5150
Wire Wire Line
	7800 5150 7700 5150
Connection ~ 7800 5150
Wire Wire Line
	7800 5150 7800 5250
Wire Wire Line
	7800 4250 7800 4200
Wire Wire Line
	7800 4200 8000 4200
Wire Wire Line
	8000 4200 8000 4250
Wire Wire Line
	9300 4850 9300 5100
Wire Wire Line
	9300 5100 9200 5100
Connection ~ 9300 5100
Wire Wire Line
	9300 5100 9300 5200
Wire Wire Line
	9300 4150 9500 4150
Wire Wire Line
	9500 4150 9500 4200
$EndSCHEMATC
